The tests in this directory were imported from the W3C repository.
Do NOT modify these tests directly in WebKit.
Instead, create a pull request on the WPT github:
	https://github.com/web-platform-tests/wpt

Then run the Tools/Scripts/import-w3c-tests in WebKit to reimport

Do NOT modify or remove this file.

------------------------------------------------------------------------
Properties requiring vendor prefixes:
None
Property values requiring vendor prefixes:
None
------------------------------------------------------------------------
List of files:
/LayoutTests/imported/w3c/web-platform-tests/css/css-transitions/animations/change-duration-during-transition.html
/LayoutTests/imported/w3c/web-platform-tests/css/css-transitions/animations/color-transition-premultiplied.html
/LayoutTests/imported/w3c/web-platform-tests/css/css-transitions/animations/move-after-transition.html
/LayoutTests/imported/w3c/web-platform-tests/css/css-transitions/animations/text-shadow-composition.html
/LayoutTests/imported/w3c/web-platform-tests/css/css-transitions/animations/text-shadow-interpolation.html
/LayoutTests/imported/w3c/web-platform-tests/css/css-transitions/animations/transition-end-event-shorthands.html
/LayoutTests/imported/w3c/web-platform-tests/css/css-transitions/animations/transition-timing-function.html
/LayoutTests/imported/w3c/web-platform-tests/css/css-transitions/animations/vertical-align-composition.html
/LayoutTests/imported/w3c/web-platform-tests/css/css-transitions/animations/vertical-align-interpolation.html
/LayoutTests/imported/w3c/web-platform-tests/css/css-transitions/animations/z-index-interpolation.html
