layer at (0,0) size 800x600
  RenderView at (0,0) size 800x600
layer at (0,0) size 800x600
  RenderSVGRoot {svg} at (0,0) size 800x600
    RenderSVGContainer {g} at (0,20) size 742x419
      RenderSVGText {text} at (94,12) size 262x16 contains 1 chunk(s)
        RenderSVGInlineText {#text} at (0,0) size 262x16
          chunk 1 (middle anchor) text run 1 at (94.06,25.00) startOffset 0 endOffset 44 width 261.87: "Test rotate='auto' and rotate='auto-reverse'"
      RenderSVGContainer {g} at (0,280) size 742x159
        RenderSVGPath {path} at (40,286) size 253x89 [stroke={[type=SOLID] [color=#000000] [stroke width=2.00]}] [data="M 25 225 C 25 175 125 150 175 200"]
        RenderSVGRect {rect} at (13,321) size 57x58 [stroke={[type=SOLID] [color=#000000] [stroke width=4.00]}] [fill={[type=SOLID] [color=#FFCCCC]}] [x=10.00] [y=195.00] [width=30.00] [height=30.00]
        RenderSVGText {text} at (8,229) size 34x14 contains 1 chunk(s)
          RenderSVGInlineText {#text} at (0,0) size 33x14
            chunk 1 (middle anchor) text run 1 at (8.80,240.00) startOffset 0 endOffset 6 width 32.40: "0 sec."
        RenderSVGRect {rect} at (263,280) size 57x57 [stroke={[type=SOLID] [color=#000000] [stroke width=4.00]}] [fill={[type=SOLID] [color=#FFCCCC]}] [x=160.00] [y=170.00] [width=30.00] [height=30.00]
        RenderSVGText {text} at (155,204) size 40x14 contains 1 chunk(s)
          RenderSVGInlineText {#text} at (0,0) size 40x14
            chunk 1 (middle anchor) text run 1 at (155.20,215.00) startOffset 0 endOffset 7 width 39.60: "6+ sec."
        RenderSVGPath {path} at (0,347) size 44x56 [transform={m=((0.00,-1.00)(1.00,0.00)) t=(25.00,225.00)}] [stroke={[type=SOLID] [color=#FF0000] [stroke width=2.00]}] [fill={[type=SOLID] [color=#0000FF]}] [data="M -15 0 L 0 -30 L 15 0 Z"]
        RenderSVGText {text} at (62,247) size 76x16 contains 1 chunk(s)
          RenderSVGInlineText {#text} at (0,0) size 75x16
            chunk 1 (middle anchor) text run 1 at (62.50,260.00) startOffset 0 endOffset 13 width 75.00: "rotate='auto'"
        RenderSVGPath {path} at (456,286) size 254x89 [stroke={[type=SOLID] [color=#000000] [stroke width=2.00]}] [data="M 275 225 C 275 175 375 150 425 200"]
        RenderSVGRect {rect} at (430,321) size 57x58 [stroke={[type=SOLID] [color=#000000] [stroke width=4.00]}] [fill={[type=SOLID] [color=#FFCCCC]}] [x=260.00] [y=195.00] [width=30.00] [height=30.00]
        RenderSVGText {text} at (258,229) size 34x14 contains 1 chunk(s)
          RenderSVGInlineText {#text} at (0,0) size 33x14
            chunk 1 (middle anchor) text run 1 at (258.80,240.00) startOffset 0 endOffset 6 width 32.40: "0 sec."
        RenderSVGRect {rect} at (680,280) size 57x57 [stroke={[type=SOLID] [color=#000000] [stroke width=4.00]}] [fill={[type=SOLID] [color=#FFCCCC]}] [x=410.00] [y=170.00] [width=30.00] [height=30.00]
        RenderSVGText {text} at (405,204) size 40x14 contains 1 chunk(s)
          RenderSVGInlineText {#text} at (0,0) size 40x14
            chunk 1 (middle anchor) text run 1 at (405.20,215.00) startOffset 0 endOffset 7 width 39.60: "6+ sec."
        RenderSVGPath {path} at (456,347) size 57x56 [transform={m=((-0.00,1.00)(-1.00,-0.00)) t=(275.00,225.00)}] [stroke={[type=SOLID] [color=#FF0000] [stroke width=2.00]}] [fill={[type=SOLID] [color=#0000FF]}] [data="M -15 0 L 0 -30 L 15 0 Z"]
        RenderSVGText {text} at (286,247) size 128x16 contains 1 chunk(s)
          RenderSVGInlineText {#text} at (0,0) size 128x16
            chunk 1 (middle anchor) text run 1 at (286.40,260.00) startOffset 0 endOffset 21 width 127.20: "rotate='auto-reverse'"
    RenderSVGText {text} at (10,304) size 269x45 contains 1 chunk(s)
      RenderSVGInlineText {#text} at (0,0) size 269x45
        chunk 1 text run 1 at (10.00,340.00) startOffset 0 endOffset 16 width 268.20: "$Revision: 1.8 $"
    RenderSVGRect {rect} at (0,0) size 800x600 [stroke={[type=SOLID] [color=#000000]}] [x=1.00] [y=1.00] [width=478.00] [height=358.00]
