layer at (0,0) size 800x600
  RenderView at (0,0) size 800x600
layer at (0,0) size 800x600
  RenderSVGRoot {svg} at (0,0) size 800x600
    RenderSVGContainer {g} at (8,82) size 766x405
      RenderSVGContainer {g} at (8,138) size 766x349
        RenderSVGText {text} at (5,82) size 27x10 contains 1 chunk(s)
          RenderSVGInlineText {#text} at (0,0) size 27x9
            chunk 1 text run 1 at (5.00,90.00) startOffset 0 endOffset 7 width 27.00: "Stroked"
        RenderSVGText {text} at (5,187) size 36x10 contains 1 chunk(s)
          RenderSVGInlineText {#text} at (0,0) size 36x9
            chunk 1 text run 1 at (5.00,195.00) startOffset 0 endOffset 9 width 35.40: "Unstroked"
        RenderSVGText {text} at (50,127) size 52x10 contains 1 chunk(s)
          RenderSVGInlineText {#text} at (0,0) size 52x9
            chunk 1 text run 1 at (50.00,135.00) startOffset 0 endOffset 15 width 51.60: "Zero width rect"
        RenderSVGText {text} at (130,127) size 55x10 contains 1 chunk(s)
          RenderSVGInlineText {#text} at (0,0) size 55x9
            chunk 1 text run 1 at (130.00,135.00) startOffset 0 endOffset 16 width 54.60: "Zero height rect"
        RenderSVGText {text} at (210,127) size 60x10 contains 1 chunk(s)
          RenderSVGInlineText {#text} at (0,0) size 60x9
            chunk 1 text run 1 at (210.00,135.00) startOffset 0 endOffset 18 width 60.00: "Zero radius circle"
        RenderSVGText {text} at (315,127) size 71x10 contains 1 chunk(s)
          RenderSVGInlineText {#text} at (0,0) size 71x9
            chunk 1 text run 1 at (315.00,135.00) startOffset 0 endOffset 21 width 70.20: "Zero x radius ellipse"
        RenderSVGText {text} at (394,127) size 71x10 contains 1 chunk(s)
          RenderSVGInlineText {#text} at (0,0) size 71x9
            chunk 1 text run 1 at (394.00,135.00) startOffset 0 endOffset 21 width 70.20: "Zero y radius ellipse"
        RenderSVGText {text} at (210,282) size 54x10 contains 1 chunk(s)
          RenderSVGInlineText {#text} at (0,0) size 54x9
            chunk 1 text run 1 at (210.00,290.00) startOffset 0 endOffset 16 width 53.40: "Zero length line"
      RenderSVGContainer {g} at (82,82) size 634x369
        RenderSVGRect {rect} at (82,82) size 61x103 [stroke={[type=SOLID] [color=#000000]}] [x=50.00] [y=50.00] [width=35.00] [height=60.00]
        RenderSVGRect {rect} at (82,257) size 61x103 [stroke={[type=SOLID] [color=#000000]}] [x=50.00] [y=155.00] [width=35.00] [height=60.00]
        RenderSVGRect {rect} at (215,82) size 61x103 [stroke={[type=SOLID] [color=#000000]}] [x=130.00] [y=50.00] [width=35.00] [height=60.00]
        RenderSVGRect {rect} at (215,257) size 61x103 [stroke={[type=SOLID] [color=#000000]}] [x=130.00] [y=155.00] [width=35.00] [height=60.00]
        RenderSVGRect {rect} at (349,82) size 102x103 [stroke={[type=SOLID] [color=#000000]}] [x=210.00] [y=50.00] [width=60.00] [height=60.00]
        RenderSVGRect {rect} at (349,257) size 102x103 [stroke={[type=SOLID] [color=#000000]}] [x=210.00] [y=155.00] [width=60.00] [height=60.00]
        RenderSVGRect {rect} at (524,82) size 61x103 [stroke={[type=SOLID] [color=#000000]}] [x=315.00] [y=50.00] [width=35.00] [height=60.00]
        RenderSVGRect {rect} at (524,257) size 61x103 [stroke={[type=SOLID] [color=#000000]}] [x=315.00] [y=155.00] [width=35.00] [height=60.00]
        RenderSVGRect {rect} at (655,82) size 61x103 [stroke={[type=SOLID] [color=#000000]}] [x=394.00] [y=50.00] [width=35.00] [height=60.00]
        RenderSVGRect {rect} at (655,257) size 61x103 [stroke={[type=SOLID] [color=#000000]}] [x=394.00] [y=155.00] [width=35.00] [height=60.00]
        RenderSVGRect {rect} at (349,432) size 102x19 [stroke={[type=SOLID] [color=#000000]}] [x=210.00] [y=260.00] [width=60.00] [height=10.00]
      RenderSVGRect {rect} at (0,0) size 0x0 [stroke={[type=SOLID] [color=#000000]}] [fill={[type=SOLID] [color=#00FF00]}] [x=55.00] [y=55.00] [width=0.00] [height=50.00]
      RenderSVGRect {rect} at (0,0) size 0x0 [stroke={[type=SOLID] [color=#000000]}] [fill={[type=SOLID] [color=#00FF00]}] [x=135.00] [y=55.00] [width=25.00] [height=0.00]
      RenderSVGRect {rect} at (0,0) size 0x0 [fill={[type=SOLID] [color=#FF0000]}] [x=55.00] [y=160.00] [width=0.00] [height=50.00]
      RenderSVGRect {rect} at (0,0) size 0x0 [fill={[type=SOLID] [color=#FF0000]}] [x=135.00] [y=160.00] [width=25.00] [height=0.00]
      RenderSVGEllipse {circle} at (0,0) size 0x0 [stroke={[type=SOLID] [color=#000000]}] [fill={[type=SOLID] [color=#00FF00]}] [cx=240.00] [cy=80.00] [r=0.00]
      RenderSVGEllipse {circle} at (0,0) size 0x0 [fill={[type=SOLID] [color=#FF0000]}] [cx=240.00] [cy=185.00] [r=0.00]
      RenderSVGEllipse {ellipse} at (0,0) size 0x0 [stroke={[type=SOLID] [color=#0000FF]}] [fill={[type=SOLID] [color=#00FF00]}] [cx=332.00] [cy=80.00] [rx=0.00] [ry=25.00]
      RenderSVGEllipse {ellipse} at (0,0) size 0x0 [fill={[type=SOLID] [color=#FF0000]}] [cx=332.00] [cy=185.00] [rx=0.00] [ry=25.00]
      RenderSVGEllipse {ellipse} at (0,0) size 0x0 [stroke={[type=SOLID] [color=#0000FF]}] [fill={[type=SOLID] [color=#00FF00]}] [cx=411.00] [cy=80.00] [rx=12.00] [ry=0.00]
      RenderSVGEllipse {ellipse} at (0,0) size 0x0 [fill={[type=SOLID] [color=#FF0000]}] [cx=411.00] [cy=185.00] [rx=12.00] [ry=0.00]
      RenderSVGPath {line} at (0,0) size 0x0 [stroke={[type=SOLID] [color=#0000FF]}] [fill={[type=SOLID] [color=#000000]}] [x1=240.00] [y1=265.00] [x2=240.00] [y2=265.00]
    RenderSVGText {text} at (10,304) size 289x45 contains 1 chunk(s)
      RenderSVGInlineText {#text} at (0,0) size 289x45
        chunk 1 text run 1 at (10.00,340.00) startOffset 0 endOffset 17 width 288.60: "$Revision: 1.16 $"
    RenderSVGRect {rect} at (0,0) size 800x600 [stroke={[type=SOLID] [color=#000000]}] [x=1.00] [y=1.00] [width=478.00] [height=358.00]
