layer at (0,0) size 800x600
  RenderView at (0,0) size 800x600
layer at (0,0) size 800x600
  RenderSVGRoot {svg} at (0,0) size 800x600
    RenderSVGContainer {g} at (86,19) size 604x302 [transform={m=((0.80,0.00)(0.00,0.80)) t=(40.00,0.00)}]
      RenderSVGPath {polygon} at (396,25) size 116x176 [stroke={[type=SOLID] [color=#000000]}] [fill={[type=SOLID] [color=#CCCCCC]}] [points="248.5 38.5 276.5 22.5 298.5 19.5 316.5 26.5 332.5 40.5 331.5 57.5 322.5 70.5 307.5 76.5 314.5 80.5 324.5 86.5 333.5 99.5 333.5 121.5 327.5 130.5 312.5 143.5 292.5 149.5 270.5 148.5 248.5 142.5 252.5 114.5 267.5 119.5 282.5 119.5 297.5 115.5 304.5 109.5 295.5 99.5 284.5 92.5 277.5 84.5 270.5 74.5 281.5 66.5 293.5 60.5 297.5 50.5 292.5 45.5 281.5 45.5 274.5 49.5 266.5 53.5"]
      RenderSVGPath {polygon} at (210,21) size 157x180 [stroke={[type=SOLID] [color=#000000]}] [fill={[type=SOLID] [color=#CCCCCC]}] [points="108.5 38.5 123.5 26.5 148.5 16.5 172.5 17.5 188.5 19.5 202.5 23.5 206.5 26.5 210.5 37.5 213.5 44.5 215.5 57.5 209.5 68.5 203.5 81.5 187.5 98.5 164.5 120.5 206.5 121.5 224.5 121.5 220.5 149.5 194.5 147.5 181.5 147.5 167.5 146.5 150.5 147.5 133.5 149.5 117.5 148.5 117.5 136.5 118.5 124.5 133.5 115.5 151.5 97.5 170.5 78.5 186.5 59.5 179.5 43.5 159.5 35.5 139.5 40.5 125.5 49.5"]
      RenderSVGPath {polygon} at (96,21) size 93x183 [stroke={[type=SOLID] [color=#000000]}] [fill={[type=SOLID] [color=#CCCCCC]}] [points="26.5 32.5 33.5 32.5 40.5 29.5 47.5 23.5 61.5 17.5 73.5 16.5 74.5 33.5 73.5 50.5 73.5 64.5 72.5 77.5 72.5 90.5 72.5 105.5 71.5 126.5 89.5 128.5 90.5 138.5 89.5 151.5 72.5 151.5 54.5 152.5 38.5 152.5 27.5 152.5 28.5 139.5 30.5 127.5 44.5 125.5 46.5 112.5 47.5 99.5 46.5 87.5 48.5 73.5 48.5 53.5 34.5 52.5 22.5 52.5 22.5 51.5 22.5 41.5 22.5 33.5"]
      RenderSVGPath {polygon} at (554,20) size 136x187 [stroke={[type=SOLID] [color=#000000]}] [fill={[type=SOLID] [color=#CCCCCC]}] [points="427.5 17.5 439.5 15.5 449.5 15.5 449.5 29.5 447.5 44.5 447.5 59.5 465.5 60.5 466.5 74.5 465.5 89.5 450.5 87.5 449.5 102.5 449.5 123.5 449.5 140.5 449.5 153.5 420.5 154.5 421.5 137.5 420.5 123.5 420.5 111.5 419.5 99.5 392.5 97.5 367.5 99.5 366.5 79.5 367.5 69.5 376.5 43.5 381.5 27.5 384.5 17.5 412.5 16.5 406.5 36.5 400.5 49.5 394.5 70.5 419.5 71.5 423.5 49.5 424.5 33.5"]
      RenderSVGPath {polygon} at (94,19) size 97x187 [stroke={[type=SOLID] [color=#000000] [stroke width=4.00]}] [fill={[type=SOLID] [color=#CC0066]}] [points="26.5 32.5 33.5 32.5 40.5 29.5 47.5 23.5 61.5 17.5 73.5 16.5 74.5 33.5 73.5 50.5 73.5 64.5 72.5 77.5 72.5 90.5 72.5 105.5 71.5 126.5 89.5 128.5 90.5 138.5 89.5 151.5 72.5 151.5 54.5 152.5 38.5 152.5 27.5 152.5 28.5 139.5 30.5 127.5 44.5 125.5 46.5 112.5 47.5 99.5 46.5 87.5 48.5 73.5 48.5 53.5 34.5 52.5 22.5 52.5 22.5 51.5 22.5 41.5 22.5 33.5"]
      RenderSVGContainer {g} at (86,240) size 81x81 [transform={m=((0.30,0.00)(0.00,0.30)) t=(-135.00,150.00)}]
        RenderSVGPath {path} at (86,240) size 81x81 [fill={[type=SOLID] [color=#CC0066]}] [data="M 500 100 L 500 300 L 700 300 L 700 100 L 550 100 L 550 250 L 650 250 L 650 100 L 500 100 Z"]
      RenderSVGContainer {g} at (254,240) size 81x81 [transform={m=((0.30,0.00)(0.00,0.30)) t=(-9.00,150.00)}]
        RenderSVGPath {path} at (254,240) size 81x81 [fill={[type=SOLID] [color=#CCCCCC] [fill rule=EVEN-ODD]}] [data="M 500 100 L 500 300 L 700 300 L 700 100 L 550 100 L 550 250 L 650 250 L 650 100 L 500 100 Z"]
      RenderSVGContainer {g} at (422,240) size 81x81 [transform={m=((0.30,0.00)(0.00,0.30)) t=(117.00,150.00)}]
        RenderSVGPath {path} at (422,240) size 81x81 [fill={[type=SOLID] [color=#CCCCCC] [fill rule=EVEN-ODD]}] [data="M 500 100 L 500 300 L 700 300 L 700 100 L 550 100 L 550 250 L 650 250 L 650 100 L 500 100 Z"]
      RenderSVGContainer {g} at (590,240) size 81x81 [transform={m=((0.30,0.00)(0.00,0.30)) t=(243.00,150.00)}]
        RenderSVGPath {path} at (590,240) size 81x81 [fill={[type=SOLID] [color=#CCCCCC] [fill rule=EVEN-ODD]}] [data="M 500 100 L 500 300 L 700 300 L 700 100 L 550 100 L 550 250 L 650 250 L 650 100 L 500 100 Z"]
    RenderSVGText {text} at (5,199) size 412x33 contains 1 chunk(s)
      RenderSVGInlineText {#text} at (0,0) size 412x32
        chunk 1 text run 1 at (5.00,225.00) startOffset 0 endOffset 39 width 411.60: "Animation on: 'points' and 'fill-rule'."
    RenderSVGText {text} at (5,238) size 320x21 contains 1 chunk(s)
      RenderSVGInlineText {#text} at (0,0) size 320x20
        chunk 1 text run 1 at (5.00,255.00) startOffset 0 endOffset 45 width 319.20: "Digit should match outline at indicated time."
    RenderSVGText {text} at (5,258) size 387x21 contains 1 chunk(s)
      RenderSVGInlineText {#text} at (0,0) size 387x20
        chunk 1 text run 1 at (5.00,275.00) startOffset 0 endOffset 54 width 386.43: "Filled square should follow morphing digit discretely."
    RenderSVGText {text} at (10,304) size 269x45 contains 1 chunk(s)
      RenderSVGInlineText {#text} at (0,0) size 269x45
        chunk 1 text run 1 at (10.00,340.00) startOffset 0 endOffset 16 width 268.20: "$Revision: 1.7 $"
    RenderSVGRect {rect} at (0,0) size 800x600 [stroke={[type=SOLID] [color=#000000]}] [x=1.00] [y=1.00] [width=478.00] [height=358.00]
