layer at (0,0) size 800x600
  RenderView at (0,0) size 800x600
layer at (0,0) size 800x600
  RenderSVGRoot {svg} at (0,0) size 800x600
    RenderSVGText {text} at (65,23) size 22x34 contains 1 chunk(s)
      RenderSVGInlineText {#text} at (0,0) size 22x34
        chunk 1 text run 1 at (65.00,50.00) startOffset 0 endOffset 1 width 21.60: "A"
    RenderSVGText {text} at (165,23) size 20x34 contains 1 chunk(s)
      RenderSVGInlineText {#text} at (0,0) size 20x34
        chunk 1 text run 1 at (165.00,50.00) startOffset 0 endOffset 1 width 19.80: "B"
    RenderSVGText {text} at (265,23) size 20x34 contains 1 chunk(s)
      RenderSVGInlineText {#text} at (0,0) size 20x34
        chunk 1 text run 1 at (265.00,50.00) startOffset 0 endOffset 1 width 19.80: "C"
    RenderSVGText {text} at (365,23) size 22x34 contains 1 chunk(s)
      RenderSVGInlineText {#text} at (0,0) size 22x34
        chunk 1 text run 1 at (365.00,50.00) startOffset 0 endOffset 1 width 21.60: "D"
    RenderSVGContainer {g} at (48,98) size 654x71 [transform={m=((1.00,0.00)(0.00,1.00)) t=(0.00,45.00)}]
      RenderSVGContainer {g} at (48,98) size 154x71
        RenderSVGRect {rect} at (48,98) size 154x71 [stroke={[type=SOLID] [color=#000000] [stroke width=2.00]}] [fill={[type=SOLID] [color=#7E8FFA]}] [x=30.00] [y=15.00] [width=90.00] [height=40.00]
        RenderSVGText {text} at (50,22) size 59x23 contains 1 chunk(s)
          RenderSVGInlineText {#text} at (0,0) size 59x22
            chunk 1 text run 1 at (50.00,40.00) startOffset 0 endOffset 7 width 58.20: "click A"
      RenderSVGContainer {g} at (215,98) size 154x71
        RenderSVGRect {rect} at (215,98) size 154x71 [stroke={[type=SOLID] [color=#000000] [stroke width=2.00]}] [fill={[type=SOLID] [color=#7E8FFA]}] [x=130.00] [y=15.00] [width=90.00] [height=40.00]
        RenderSVGText {text} at (135,22) size 79x23 contains 1 chunk(s)
          RenderSVGInlineText {#text} at (0,0) size 79x22
            chunk 1 text run 1 at (135.00,40.00) startOffset 0 endOffset 9 width 78.60: "click B+2"
      RenderSVGContainer {g} at (381,98) size 154x71
        RenderSVGRect {rect} at (381,98) size 154x71 [stroke={[type=SOLID] [color=#000000] [stroke width=2.00]}] [fill={[type=SOLID] [color=#7E8FFA]}] [x=230.00] [y=15.00] [width=90.00] [height=40.00]
        RenderSVGText {text} at (235,22) size 79x23 contains 1 chunk(s)
          RenderSVGInlineText {#text} at (0,0) size 79x22
            chunk 1 text run 1 at (235.00,40.00) startOffset 0 endOffset 9 width 78.60: "click C+4"
      RenderSVGContainer {g} at (548,98) size 154x71
        RenderSVGRect {rect} at (548,98) size 154x71 [stroke={[type=SOLID] [color=#000000] [stroke width=2.00]}] [fill={[type=SOLID] [color=#7E8FFA]}] [x=330.00] [y=15.00] [width=90.00] [height=40.00]
        RenderSVGText {text} at (350,22) size 45x23 contains 1 chunk(s)
          RenderSVGInlineText {#text} at (0,0) size 45x22
            chunk 1 text run 1 at (350.00,40.00) startOffset 0 endOffset 5 width 45.00: "never"
    RenderSVGText {text} at (15,149) size 292x33 contains 1 chunk(s)
      RenderSVGInlineText {#text} at (0,0) size 292x32
        chunk 1 text run 1 at (15.00,175.00) startOffset 0 endOffset 26 width 291.52: "Test of Eventbase targets."
    RenderSVGText {text} at (15,228) size 338x21 contains 1 chunk(s)
      RenderSVGInlineText {#text} at (0,0) size 338x20
        chunk 1 text run 1 at (15.00,245.00) startOffset 0 endOffset 48 width 337.20: "Note that clicking rect D should give no result."
    RenderSVGText {text} at (15,188) size 359x21 contains 1 chunk(s)
      RenderSVGInlineText {#text} at (0,0) size 359x20
        chunk 1 text run 1 at (15.00,205.00) startOffset 0 endOffset 51 width 358.20: "Clicking a rectangle should change its color at the"
    RenderSVGText {text} at (15,208) size 362x21 contains 1 chunk(s)
      RenderSVGInlineText {#text} at (0,0) size 362x20
        chunk 1 text run 1 at (15.00,225.00) startOffset 0 endOffset 53 width 361.80: "time for the click + delay as indicated in each rect."
    RenderSVGText {text} at (10,304) size 269x45 contains 1 chunk(s)
      RenderSVGInlineText {#text} at (0,0) size 269x45
        chunk 1 text run 1 at (10.00,340.00) startOffset 0 endOffset 16 width 268.20: "$Revision: 1.8 $"
    RenderSVGRect {rect} at (0,0) size 800x600 [stroke={[type=SOLID] [color=#000000]}] [x=1.00] [y=1.00] [width=478.00] [height=358.00]
