layer at (0,0) size 800x600
  RenderView at (0,0) size 800x600
layer at (0,0) size 800x600
  RenderSVGRoot {svg} at (0,0) size 800x600
    RenderSVGText {text} at (10,304) size 269x45 contains 1 chunk(s)
      RenderSVGInlineText {#text} at (0,0) size 269x45
        chunk 1 text run 1 at (10.00,340.00) startOffset 0 endOffset 16 width 268.20: "$Revision: 1.7 $"
    RenderSVGRect {rect} at (0,0) size 800x600 [stroke={[type=SOLID] [color=#000000]}] [x=1.00] [y=1.00] [width=478.00] [height=358.00]
    RenderSVGText {text} at (225,12) size 30x23 contains 1 chunk(s)
      RenderSVGInlineText {#text} at (0,0) size 30x22
        chunk 1 (middle anchor) text run 1 at (225.30,30.00) startOffset 0 endOffset 3 width 29.40: "end"
    RenderSVGContainer {g} at (186,96) size 398x354 [transform={m=((1.00,0.00)(0.00,1.00)) t=(100.00,80.00)}]
      RenderSVGContainer {g} at (186,121) size 114x318 [transform={m=((1.00,0.00)(0.00,1.00)) t=(80.00,5.00)}]
        RenderSVGText {text} at (-65,-13) size 65x16 contains 1 chunk(s)
          RenderSVGInlineText {#text} at (0,0) size 65x16
            chunk 1 (end anchor) text run 1 at (-64.20,0.00) startOffset 0 endOffset 11 width 64.20: "unspecified"
        RenderSVGText {text} at (-32,12) size 32x16 contains 1 chunk(s)
          RenderSVGInlineText {#text} at (0,0) size 32x16
            chunk 1 (end anchor) text run 1 at (-31.55,25.00) startOffset 0 endOffset 6 width 31.55: "offset"
        RenderSVGText {text} at (-59,37) size 59x16 contains 1 chunk(s)
          RenderSVGInlineText {#text} at (0,0) size 59x16
            chunk 1 (end anchor) text run 1 at (-58.20,50.00) startOffset 0 endOffset 10 width 58.20: "event base"
        RenderSVGText {text} at (-54,62) size 54x16 contains 1 chunk(s)
          RenderSVGInlineText {#text} at (0,0) size 54x16
            chunk 1 (end anchor) text run 1 at (-54.00,75.00) startOffset 0 endOffset 9 width 54.00: "sync base"
        RenderSVGText {text} at (-53,87) size 53x16 contains 1 chunk(s)
          RenderSVGInlineText {#text} at (0,0) size 53x16
            chunk 1 (end anchor) text run 1 at (-52.80,100.00) startOffset 0 endOffset 10 width 52.80: "indefinite"
        RenderSVGText {text} at (-44,112) size 44x16 contains 1 chunk(s)
          RenderSVGInlineText {#text} at (0,0) size 44x16
            chunk 1 (end anchor) text run 1 at (-43.20,125.00) startOffset 0 endOffset 8 width 43.20: "repeat()"
        RenderSVGText {text} at (-68,137) size 68x16 contains 1 chunk(s)
          RenderSVGInlineText {#text} at (0,0) size 68x16
            chunk 1 (end anchor) text run 1 at (-67.80,150.00) startOffset 0 endOffset 11 width 67.80: "accessKey()"
        RenderSVGText {text} at (-63,162) size 63x16 contains 1 chunk(s)
          RenderSVGInlineText {#text} at (0,0) size 63x16
            chunk 1 (end anchor) text run 1 at (-63.00,175.00) startOffset 0 endOffset 11 width 63.00: "wallclock()"
      RenderSVGContainer {g} at (327,96) size 253x16 [transform={m=((1.00,0.00)(0.00,1.00)) t=(100.00,-15.00)}]
        RenderSVGText {text} at (-4,-7) size 8x9 contains 1 chunk(s)
          RenderSVGInlineText {#text} at (0,0) size 8x9
            chunk 1 (middle anchor) text run 1 at (-3.60,0.00) startOffset 0 endOffset 2 width 7.20: "0s"
        RenderSVGText {text} at (8,-7) size 8x9 contains 1 chunk(s)
          RenderSVGInlineText {#text} at (0,0) size 8x9
            chunk 1 (middle anchor) text run 1 at (8.40,0.00) startOffset 0 endOffset 2 width 7.20: "1s"
        RenderSVGText {text} at (20,-7) size 8x9 contains 1 chunk(s)
          RenderSVGInlineText {#text} at (0,0) size 8x9
            chunk 1 (middle anchor) text run 1 at (20.40,0.00) startOffset 0 endOffset 2 width 7.20: "2s"
        RenderSVGText {text} at (32,-7) size 8x9 contains 1 chunk(s)
          RenderSVGInlineText {#text} at (0,0) size 8x9
            chunk 1 (middle anchor) text run 1 at (32.40,0.00) startOffset 0 endOffset 2 width 7.20: "3s"
        RenderSVGText {text} at (44,-7) size 8x9 contains 1 chunk(s)
          RenderSVGInlineText {#text} at (0,0) size 8x9
            chunk 1 (middle anchor) text run 1 at (44.40,0.00) startOffset 0 endOffset 2 width 7.20: "4s"
        RenderSVGText {text} at (56,-7) size 8x9 contains 1 chunk(s)
          RenderSVGInlineText {#text} at (0,0) size 8x9
            chunk 1 (middle anchor) text run 1 at (56.40,0.00) startOffset 0 endOffset 2 width 7.20: "5s"
        RenderSVGText {text} at (68,-7) size 8x9 contains 1 chunk(s)
          RenderSVGInlineText {#text} at (0,0) size 8x9
            chunk 1 (middle anchor) text run 1 at (68.40,0.00) startOffset 0 endOffset 2 width 7.20: "6s"
        RenderSVGText {text} at (80,-7) size 8x9 contains 1 chunk(s)
          RenderSVGInlineText {#text} at (0,0) size 8x9
            chunk 1 (middle anchor) text run 1 at (80.40,0.00) startOffset 0 endOffset 2 width 7.20: "7s"
        RenderSVGText {text} at (92,-7) size 8x9 contains 1 chunk(s)
          RenderSVGInlineText {#text} at (0,0) size 8x9
            chunk 1 (middle anchor) text run 1 at (92.40,0.00) startOffset 0 endOffset 2 width 7.20: "8s"
        RenderSVGText {text} at (116,-7) size 8x9 contains 1 chunk(s)
          RenderSVGInlineText {#text} at (0,0) size 8x9
            chunk 1 (middle anchor) text run 1 at (116.40,0.00) startOffset 0 endOffset 2 width 7.20: "0s"
        RenderSVGText {text} at (128,-7) size 8x9 contains 1 chunk(s)
          RenderSVGInlineText {#text} at (0,0) size 8x9
            chunk 1 (middle anchor) text run 1 at (128.40,0.00) startOffset 0 endOffset 2 width 7.20: "1s"
        RenderSVGText {text} at (140,-7) size 8x9 contains 1 chunk(s)
          RenderSVGInlineText {#text} at (0,0) size 8x9
            chunk 1 (middle anchor) text run 1 at (140.40,0.00) startOffset 0 endOffset 2 width 7.20: "2s"
      RenderSVGContainer {g} at (323,116) size 261x334 [transform={m=((1.00,0.00)(0.00,8.00)) t=(94.00,-10.00)}]
        RenderSVGRect {rect} at (323,116) size 21x334 [fill={[type=SOLID] [color=#EEEEEE]}] [x=0.00] [y=0.00] [width=12.00] [height=25.00]
        RenderSVGRect {rect} at (343,116) size 21x334 [fill={[type=SOLID] [color=#DDDDDD]}] [x=12.00] [y=0.00] [width=12.00] [height=25.00]
        RenderSVGRect {rect} at (363,116) size 21x334 [fill={[type=SOLID] [color=#EEEEEE]}] [x=24.00] [y=0.00] [width=12.00] [height=25.00]
        RenderSVGRect {rect} at (383,116) size 21x334 [fill={[type=SOLID] [color=#DDDDDD]}] [x=36.00] [y=0.00] [width=12.00] [height=25.00]
        RenderSVGRect {rect} at (403,116) size 21x334 [fill={[type=SOLID] [color=#EEEEEE]}] [x=48.00] [y=0.00] [width=12.00] [height=25.00]
        RenderSVGRect {rect} at (423,116) size 21x334 [fill={[type=SOLID] [color=#DDDDDD]}] [x=60.00] [y=0.00] [width=12.00] [height=25.00]
        RenderSVGRect {rect} at (443,116) size 21x334 [fill={[type=SOLID] [color=#EEEEEE]}] [x=72.00] [y=0.00] [width=12.00] [height=25.00]
        RenderSVGRect {rect} at (463,116) size 21x334 [fill={[type=SOLID] [color=#DDDDDD]}] [x=84.00] [y=0.00] [width=12.00] [height=25.00]
        RenderSVGRect {rect} at (483,116) size 21x334 [fill={[type=SOLID] [color=#EEEEEE]}] [x=96.00] [y=0.00] [width=12.00] [height=25.00]
        RenderSVGRect {rect} at (523,116) size 21x334 [fill={[type=SOLID] [color=#EEEEEE]}] [x=120.00] [y=0.00] [width=12.00] [height=25.00]
        RenderSVGRect {rect} at (543,116) size 21x334 [fill={[type=SOLID] [color=#DDDDDD]}] [x=132.00] [y=0.00] [width=12.00] [height=25.00]
        RenderSVGRect {rect} at (563,116) size 21x334 [fill={[type=SOLID] [color=#EEEEEE]}] [x=144.00] [y=0.00] [width=12.00] [height=25.00]
      RenderSVGContainer {g} at (323,123) size 261x312 [transform={m=((1.00,0.00)(0.00,1.00)) t=(100.00,0.00)}]
        RenderSVGContainer {g} at (323,123) size 21x21
          RenderSVGRect {rect} at (323,123) size 21x21 [fill={[type=SOLID] [color=#33FF33]}] [x=-6.00] [y=-6.00] [width=12.00] [height=12.00]
        RenderSVGContainer {g} at (363,165) size 21x20 [transform={m=((1.00,0.00)(0.00,1.00)) t=(0.00,25.00)}]
          RenderSVGRect {rect} at (363,165) size 21x20 [transform={m=((1.00,0.00)(0.00,1.00)) t=(24.00,0.00)}] [fill={[type=SOLID] [color=#FF3333]}] [x=-6.00] [y=-6.00] [width=12.00] [height=12.00]
        RenderSVGContainer {g} at (523,206) size 61x21 [transform={m=((1.00,0.00)(0.00,1.00)) t=(0.00,50.00)}]
          RenderSVGRect {rect} at (523,206) size 21x21 [transform={m=((1.00,0.00)(0.00,1.00)) t=(120.00,0.00)}] [fill={[type=SOLID] [color=#FF3333]}] [x=-6.00] [y=-6.00] [width=12.00] [height=12.00]
          RenderSVGRect {rect} at (563,206) size 21x21 [transform={m=((1.00,0.00)(0.00,1.00)) t=(144.00,0.00)}] [fill={[type=SOLID] [color=#FF3333]}] [x=-6.00] [y=-6.00] [width=12.00] [height=12.00]
        RenderSVGContainer {g} at (363,248) size 141x21 [transform={m=((1.00,0.00)(0.00,1.00)) t=(0.00,75.00)}]
          RenderSVGRect {rect} at (363,248) size 21x21 [transform={m=((1.00,0.00)(0.00,1.00)) t=(24.00,0.00)}] [fill={[type=SOLID] [color=#FF3333]}] [x=-6.00] [y=-6.00] [width=12.00] [height=12.00]
          RenderSVGRect {rect} at (403,248) size 21x21 [transform={m=((1.00,0.00)(0.00,1.00)) t=(48.00,0.00)}] [fill={[type=SOLID] [color=#FF3333]}] [x=-6.00] [y=-6.00] [width=12.00] [height=12.00]
          RenderSVGRect {rect} at (443,248) size 21x21 [transform={m=((1.00,0.00)(0.00,1.00)) t=(72.00,0.00)}] [fill={[type=SOLID] [color=#FF3333]}] [x=-6.00] [y=-6.00] [width=12.00] [height=12.00]
          RenderSVGRect {rect} at (483,248) size 21x21 [transform={m=((1.00,0.00)(0.00,1.00)) t=(96.00,0.00)}] [fill={[type=SOLID] [color=#FF3333]}] [x=-6.00] [y=-6.00] [width=12.00] [height=12.00]
        RenderSVGContainer {g} at (323,290) size 21x20 [transform={m=((1.00,0.00)(0.00,1.00)) t=(0.00,100.00)}]
          RenderSVGRect {rect} at (323,290) size 21x20 [fill={[type=SOLID] [color=#33FF33]}] [x=-6.00] [y=-6.00] [width=12.00] [height=12.00]
        RenderSVGContainer {g} at (383,331) size 61x21 [transform={m=((1.00,0.00)(0.00,1.00)) t=(0.00,125.00)}]
          RenderSVGRect {rect} at (383,331) size 21x21 [transform={m=((1.00,0.00)(0.00,1.00)) t=(36.00,0.00)}] [fill={[type=SOLID] [color=#FF3333]}] [x=-6.00] [y=-6.00] [width=12.00] [height=12.00]
          RenderSVGRect {rect} at (423,331) size 21x21 [transform={m=((1.00,0.00)(0.00,1.00)) t=(60.00,0.00)}] [fill={[type=SOLID] [color=#FF3333]}] [x=-6.00] [y=-6.00] [width=12.00] [height=12.00]
        RenderSVGContainer {g} at (523,373) size 61x21 [transform={m=((1.00,0.00)(0.00,1.00)) t=(0.00,150.00)}]
          RenderSVGRect {rect} at (523,373) size 21x21 [transform={m=((1.00,0.00)(0.00,1.00)) t=(120.00,0.00)}] [fill={[type=SOLID] [color=#FF3333]}] [x=-6.00] [y=-6.00] [width=12.00] [height=12.00]
          RenderSVGRect {rect} at (563,373) size 21x21 [transform={m=((1.00,0.00)(0.00,1.00)) t=(144.00,0.00)}] [fill={[type=SOLID] [color=#FF3333]}] [x=-6.00] [y=-6.00] [width=12.00] [height=12.00]
        RenderSVGContainer {g} at (323,415) size 21x20 [transform={m=((1.00,0.00)(0.00,1.00)) t=(0.00,175.00)}]
          RenderSVGRect {rect} at (323,415) size 21x20 [fill={[type=SOLID] [color=#33FF33]}] [x=-6.00] [y=-6.00] [width=12.00] [height=12.00]
