layer at (0,0) size 800x600
  RenderView at (0,0) size 800x600
layer at (0,0) size 800x600
  RenderSVGRoot {svg} at (0,0) size 800x600
    RenderSVGContainer {g} at (33,29) size 537x449
      RenderSVGHiddenContainer {defs} at (0,0) size 0x0
        RenderSVGResourceClipper {clipPath} [id="clip1"] [clipPathUnits=userSpaceOnUse]
          RenderSVGRect {rect} at (333,16) size 101x168 [fill={[type=SOLID] [color=#000000]}] [x=200.00] [y=10.00] [width=60.00] [height=100.00]
        RenderSVGResourceClipper {clipPath} [id="clip2"] [clipPathUnits=userSpaceOnUse]
          RenderSVGRect {rect} at (150,250) size 292x167 [fill={[type=SOLID] [color=#000000]}] [x=90.00] [y=150.00] [width=175.00] [height=100.00]
          RenderSVGRect {rect} at (375,266) size 159x126 [fill={[type=SOLID] [color=#000000]}] [x=225.00] [y=160.00] [width=95.00] [height=75.00]
      RenderSVGRect {rect} at (333,29) size 101x109 [stroke={[type=SOLID] [color=#000000] [stroke width=5.00]}] [fill={[type=SOLID] [color=#FF0000]}] [x=20.00] [y=20.00] [width=440.00] [height=60.00]
        [clipPath="clip1"] RenderSVGResourceClipper {clipPath} at (200,10) size 60x100
      RenderSVGText {text} at (20,102) size 322x35 contains 1 chunk(s)
        RenderSVGInlineText {#text} at (0,0) size 322x34
          chunk 1 text run 1 at (20.00,130.00) startOffset 0 endOffset 23 width 321.60: "Rectangle being clipped"
      RenderSVGContainer {g} at (187,254) size 347x163
        [clipPath="clip2"] RenderSVGResourceClipper {clipPath} at (90,150) size 230x100
        RenderSVGRect {rect} at (187,312) size 384x76 [stroke={[type=SOLID] [color=#0000FF] [stroke width=5.00]}] [fill={[type=SOLID] [color=#00FFFF]}] [x=115.00] [y=190.00] [width=225.00] [height=40.00]
        RenderSVGRect {rect} at (187,395) size 384x76 [stroke={[type=SOLID] [color=#008000] [stroke width=5.00]}] [fill={[type=SOLID] [color=#00FF00]}] [x=115.00] [y=240.00] [width=225.00] [height=40.00]
        RenderSVGText {text} at (115,152) size 327x35 contains 1 chunk(s)
          RenderSVGInlineText {#text} at (0,0) size 327x34
            chunk 1 text run 1 at (115.00,180.00) startOffset 0 endOffset 26 width 327.00: "Line of text to be clipped"
      RenderSVGText {text} at (20,252) size 270x35 contains 1 chunk(s)
        RenderSVGInlineText {#text} at (0,0) size 270x34
          chunk 1 text run 1 at (20.00,280.00) startOffset 0 endOffset 19 width 270.00: "Group being clipped"
      RenderSVGContainer {g} at (148,248) size 387x171
        RenderSVGRect {rect} at (148,248) size 296x171 [stroke={[type=SOLID] [color=#999999] [stroke width=2.00]}] [x=90.00] [y=150.00] [width=175.00] [height=100.00]
        RenderSVGRect {rect} at (373,265) size 162x129 [stroke={[type=SOLID] [color=#999999] [stroke width=2.00]}] [x=225.00] [y=160.00] [width=95.00] [height=75.00]
    RenderSVGText {text} at (10,304) size 289x45 contains 1 chunk(s)
      RenderSVGInlineText {#text} at (0,0) size 289x45
        chunk 1 text run 1 at (10.00,340.00) startOffset 0 endOffset 17 width 288.60: "$Revision: 1.10 $"
    RenderSVGRect {rect} at (0,0) size 800x600 [stroke={[type=SOLID] [color=#000000]}] [x=1.00] [y=1.00] [width=478.00] [height=358.00]
