layer at (0,0) size 800x600
  RenderView at (0,0) size 800x600
layer at (0,0) size 800x600
  RenderSVGRoot {svg} at (0,0) size 800x600
    RenderSVGContainer {g} at (24,20) size 669x376
      RenderSVGText {text} at (75,12) size 308x28 contains 1 chunk(s)
        RenderSVGInlineText {#text} at (0,0) size 308x27
          chunk 1 text run 1 at (75.00,34.00) startOffset 0 endOffset 26 width 307.20: "Lines drawn with commands:"
      RenderSVGText {text} at (180,42) size 85x28 contains 1 chunk(s)
        RenderSVGInlineText {#text} at (0,0) size 85x27
          chunk 1 text run 1 at (180.00,64.00) startOffset 0 endOffset 7 width 84.60: "m and z"
      RenderSVGContainer {g} at (24,114) size 669x282 [transform={m=((1.80,0.00)(0.00,1.80)) t=(0.00,-270.00)}]
        RenderSVGPath {path} at (27,116) size 318x276 [stroke={[type=SOLID] [color=#000000]}] [data="M 62 190 L 113.962 280 L 10.0385 280 L 62 190 Z M 62 205 L 100.971 272.5 L 23.0589 272.5 L 62.03 205 Z"]
        RenderSVGRect {rect} at (180,114) size 12x12 [fill={[type=SOLID] [color=#FF0000]}] [x=60.00] [y=188.00] [width=4.00] [height=4.00]
        RenderSVGRect {rect} at (335,384) size 13x12 [fill={[type=SOLID] [color=#FF0000]}] [x=111.96] [y=278.00] [width=4.00] [height=4.00]
        RenderSVGRect {rect} at (24,384) size 13x12 [fill={[type=SOLID] [color=#FF0000]}] [x=8.04] [y=278.00] [width=4.00] [height=4.00]
        RenderSVGRect {rect} at (180,158) size 12x13 [fill={[type=SOLID] [color=#FF0000]}] [x=60.00] [y=203.00] [width=4.00] [height=4.00]
        RenderSVGRect {rect} at (296,361) size 13x13 [fill={[type=SOLID] [color=#FF0000]}] [x=98.97] [y=270.50] [width=4.00] [height=4.00]
        RenderSVGRect {rect} at (63,361) size 13x13 [fill={[type=SOLID] [color=#FF0000]}] [x=21.03] [y=270.50] [width=4.00] [height=4.00]
        RenderSVGPath {path} at (375,120) size 312x270 [fill={[type=SOLID] [color=#00C000] [fill rule=EVEN-ODD]}] [data="M 177 190 L 228.962 280 L 125.038 280 L 177 190 Z M 177 205 L 215.971 272.5 L 138.059 272.5 L 177.03 205 Z"]
        RenderSVGRect {rect} at (525,114) size 12x12 [fill={[type=SOLID] [color=#FF0000]}] [x=175.00] [y=188.00] [width=4.00] [height=4.00]
        RenderSVGRect {rect} at (680,384) size 13x12 [fill={[type=SOLID] [color=#FF0000]}] [x=226.96] [y=278.00] [width=4.00] [height=4.00]
        RenderSVGRect {rect} at (369,384) size 13x12 [fill={[type=SOLID] [color=#FF0000]}] [x=123.04] [y=278.00] [width=4.00] [height=4.00]
        RenderSVGRect {rect} at (525,158) size 12x13 [fill={[type=SOLID] [color=#FF0000]}] [x=175.00] [y=203.00] [width=4.00] [height=4.00]
        RenderSVGRect {rect} at (641,361) size 13x13 [fill={[type=SOLID] [color=#FF0000]}] [x=213.97] [y=270.50] [width=4.00] [height=4.00]
        RenderSVGRect {rect} at (408,361) size 13x13 [fill={[type=SOLID] [color=#FF0000]}] [x=136.03] [y=270.50] [width=4.00] [height=4.00]
    RenderSVGText {text} at (10,304) size 288x45 contains 1 chunk(s)
      RenderSVGInlineText {#text} at (0,0) size 288x45
        chunk 1 text run 1 at (10.00,340.00) startOffset 0 endOffset 17 width 287.11: "$Revision: 1.11 $"
    RenderSVGRect {rect} at (0,0) size 800x600 [stroke={[type=SOLID] [color=#000000]}] [x=1.00] [y=1.00] [width=478.00] [height=358.00]
