layer at (0,0) size 800x600
  RenderView at (0,0) size 800x600
layer at (0,0) size 800x156
  RenderBlock {HTML} at (0,0) size 800x156
    RenderBody {BODY} at (8,8) size 784x140
      RenderBlock (anonymous) at (0,0) size 784x40
        RenderText {#text} at (0,0) size 750x39
          text run at (0,0) width 301: "You should see a 100x100 green square below. "
          text run at (301,0) width 237: "If you see any red, the test has failed. "
          text run at (538,0) width 212: "This test is checking to make sure"
          text run at (0,20) width 148: "overflow is done using "
          text run at (148,20) width 163: "a containing block model."
layer at (8,48) size 100x100 scrollWidth 200 scrollHeight 400
  RenderBlock (relative positioned) {DIV} at (0,40) size 100x100 [bgcolor=#008000]
    RenderBlock {DIV} at (100,100) size 100x100 [bgcolor=#FF0000]
