layer at (0,0) size 800x600
  RenderView at (0,0) size 800x600
layer at (0,0) size 800x600
  RenderSVGRoot {svg} at (0,0) size 800x600
    RenderSVGHiddenContainer {defs} at (0,0) size 0x0
    RenderSVGContainer {g} at (3,7) size 782x509
      RenderSVGContainer {g} at (3,7) size 782x431 [transform={m=((0.90,0.00)(0.00,0.90)) t=(0.00,0.00)}]
        RenderSVGContainer {g} at (3,11) size 475x413
          RenderSVGContainer {g} at (182,18) size 296x399
            RenderSVGContainer {g} at (332,18) size 146x114
              RenderSVGPath {polyline} at (332,18) size 146x114 [stroke={[type=SOLID] [color=#000000] [stroke width=15.00] [dash array={90.00, 20.00, 5.00, 15.00}]}] [points="240 20 300 20 240 80 300 80"]
              RenderSVGContainer {use} at (358,29) size 94x92
                RenderSVGPath {polyline} at (358,29) size 94x92 [stroke={[type=SOLID] [color=#FF0000] [dash array={90.00, 20.00, 5.00, 15.00}]}] [points="240 20 300 20 240 80 300 80"]
            RenderSVGPath {polyline} at (182,18) size 146x114 [stroke={[type=SOLID] [color=#808080] [stroke width=15.00] [dash array={90.00, 20.00, 5.00, 15.00}]}] [points="140 20 200 20 140 80 200 80"]
            RenderSVGPath {polyline} at (194,161) size 122x113 [stroke={[type=SOLID] [color=#808080] [stroke width=15.00] [line cap=ROUND] [line join=ROUND] [dash array={90.00, 20.00, 5.00, 15.00}]}] [points="140 115 200 115 140 175 200 175"]
            RenderSVGPath {polyline} at (198,303) size 114x114 [stroke={[type=SOLID] [color=#808080] [stroke width=15.00] [line cap=SQUARE] [line join=BEVEL] [dash array={90.00, 20.00, 5.00, 15.00}]}] [points="140 210 200 210 140 270 200 270"]
            RenderSVGContainer {use} at (208,29) size 94x92
              RenderSVGPath {polyline} at (208,29) size 94x92 [stroke={[type=SOLID] [color=#FF0000] [dash array={90.00, 20.00, 5.00, 15.00}]}] [points="140 20 200 20 140 80 200 80"]
            RenderSVGContainer {use} at (208,171) size 94x93
              RenderSVGPath {polyline} at (208,171) size 94x93 [stroke={[type=SOLID] [color=#FF0000] [line cap=ROUND] [line join=ROUND] [dash array={90.00, 20.00, 5.00, 15.00}]}] [points="140 115 200 115 140 175 200 175"]
            RenderSVGContainer {use} at (209,314) size 92x92
              RenderSVGPath {polyline} at (209,314) size 92x92 [stroke={[type=SOLID] [color=#FF0000] [line cap=SQUARE] [line join=BEVEL] [dash array={90.00, 20.00, 5.00, 15.00}]}] [points="140 210 200 210 140 270 200 270"]
          RenderSVGContainer {g} at (3,11) size 75x413
            RenderSVGPath {polyline} at (12,11) size 63x53 [stroke={[type=SOLID] [color=#808080] [stroke width=5.00] [dash offset=-50.00] [dash array={5.00, 5.00, 20.00}]}] [points="10 10 50 10 10 40 50 40"]
            RenderSVGPath {polyline} at (15,71) size 63x53 [stroke={[type=SOLID] [color=#808080] [stroke width=5.00] [dash offset=-30.00] [dash array={5.00, 5.00, 20.00}]}] [points="10 50 50 50 10 80 50 80"]
            RenderSVGPath {polyline} at (15,131) size 63x53 [stroke={[type=SOLID] [color=#808080] [stroke width=5.00] [dash offset=-10.00] [dash array={5.00, 5.00, 20.00}]}] [points="10 90 50 90 10 120 50 120"]
            RenderSVGPath {polyline} at (12,191) size 63x53 [stroke={[type=SOLID] [color=#808080] [stroke width=5.00] [dash array={5.00, 5.00, 20.00}]}] [points="10 130 50 130 10 160 50 160"]
            RenderSVGPath {polyline} at (12,251) size 63x53 [stroke={[type=SOLID] [color=#808080] [stroke width=5.00] [dash offset=10.00] [dash array={5.00, 5.00, 20.00}]}] [points="10 170 50 170 10 200 50 200"]
            RenderSVGPath {polyline} at (15,311) size 63x53 [stroke={[type=SOLID] [color=#808080] [stroke width=5.00] [dash offset=30.00] [dash array={5.00, 5.00, 20.00}]}] [points="10 210 50 210 10 240 50 240"]
            RenderSVGPath {polyline} at (3,371) size 72x53 [stroke={[type=SOLID] [color=#808080] [stroke width=5.00] [dash offset=50.00] [dash array={5.00, 5.00, 20.00}]}] [points="10 250 50 250 10 280 50 280"]
          RenderSVGContainer {g} at (87,11) size 63x53
            RenderSVGPath {polyline} at (87,11) size 63x53 [stroke={[type=SOLID] [color=#FF0000] [stroke width=5.00] [dash offset=-50.00] [dash array={5.00, 5.00, 20.00}]}] [points="60 10 100 10 60 40 100 40"]
        RenderSVGContainer {g} at (487,7) size 187x423 [transform={m=((2.50,0.00)(0.00,2.50)) t=(325.00,5.00)}]
          RenderSVGContainer {g} at (487,7) size 187x198
            RenderSVGContainer {g} at (490,7) size 181x198
              RenderSVGPath {path} at (490,7) size 181x198 [fill={[type=SOLID] [color=#000000]}] [data="M 16 51.1 C 16.8 48.2 18.5 41.9 19 40.1 C 21.1 40.1 27.9 40.1 30 40.1 C 30.5 41.8 32.5 48.3 33.3 51.2 L 35.2 52.6 L 47 52.6 L 48.9 50 L 33.8 1.4 L 31.9 0 L 17.5 0 L 15.6 1.4 L 0.8 49.9 L 2.7 52.5 L 14.1 52.5 L 16 51.1 Z M 15.5 37.5 C 14.7 40.4 13 46.7 12.5 48.5 C 10.8 48.5 7.9 48.5 5.4 48.5 C 6.8 44 18.2 6.5 19 4 C 21.1 4 28.3 4 30.4 4 C 31.2 6.5 42.9 44 44.3 48.5 C 41.6 48.5 38.4 48.5 36.7 48.5 C 36.2 46.8 34.2 40.3 33.4 37.5 L 31.5 36.1 L 17.4 36.1 L 15.5 37.5 Z"]
              RenderSVGPath {path} at (551,43) size 55x85 [fill={[type=SOLID] [color=#000000]}] [data="M 22.3 9.8 L 20 19.1 L 17.1 29.3 L 19 31.9 L 29.7 31.9 L 31.6 29.3 L 28.6 19 C 28.6 19 26.1 9.7 26.1 9.7 L 22.3 9.8 Z M 23.9 20.1 C 23.9 20.1 24.1 19.3 24.3 18.3 C 24.4 18.8 24.8 20.1 24.8 20.1 C 24.8 20.1 26.2 25 27.1 27.9 C 25.1 27.9 23.7 27.9 21.7 27.9 C 22.5 25 23.9 20.1 23.9 20.1 Z"]
            RenderSVGContainer {g} at (490,7) size 181x198
              RenderSVGPath {path} at (490,7) size 181x198 [fill={[type=SOLID] [color=#000000]}] [data="M 31.9 0 L 16.1 0 L 0.8 49.9 L 2.7 52.5 L 15.6 52.5 C 15.6 52.5 18.4 42.3 19 40 C 21.1 40 27.9 40 30 40 C 30.7 42.2 33.7 52.5 33.7 52.5 L 47 52.5 L 48.9 49.9 L 33.3 0 L 31.9 0 Z M 30.4 4 C 31.2 6.5 42.9 44 44.3 48.5 C 41.6 48.5 38.4 48.5 36.7 48.5 C 36 46.3 33 36 33 36 L 16 36 C 16 36 13.2 46.2 12.6 48.5 C 10.9 48.5 8 48.5 5.5 48.5 C 6.8 44 18.2 6.5 19 4 C 21.1 4 28.3 4 30.4 4 Z"]
              RenderSVGPath {path} at (551,43) size 55x85 [fill={[type=SOLID] [color=#000000]}] [data="M 22.3 9.8 L 20 19.1 L 17.1 29.3 L 19 31.9 L 29.7 31.9 L 31.6 29.3 L 28.6 19 C 28.6 19 26.1 9.7 26.1 9.7 L 22.3 9.8 Z M 23.9 20.1 C 23.9 20.1 24.1 19.3 24.3 18.3 C 24.4 18.8 24.8 20.1 24.8 20.1 C 24.8 20.1 26.2 25 27.1 27.9 C 25.1 27.9 23.7 27.9 21.7 27.9 C 22.5 25 23.9 20.1 23.9 20.1 Z"]
            RenderSVGContainer {g} at (487,7) size 187x198
              RenderSVGPath {path} at (487,7) size 187x198 [fill={[type=SOLID] [color=#000000]}] [data="M 31.9 0 L 16.1 0 L 0 52.5 L 15.6 52.5 C 15.6 52.5 18.4 42.3 19 40 C 21.1 40 27.9 40 30 40 C 30.7 42.2 33.7 52.5 33.7 52.5 L 49.7 52.5 L 33.3 0 L 31.9 0 Z M 30.4 4 C 31.2 6.5 42.9 44 44.3 48.5 C 41.6 48.5 38.4 48.5 36.7 48.5 C 36 46.3 33 36 33 36 L 16 36 C 16 36 13.2 46.2 12.6 48.5 C 10.9 48.5 8 48.5 5.5 48.5 C 6.8 44 18.2 6.5 19 4 C 21.1 4 28.3 4 30.4 4 Z"]
              RenderSVGPath {path} at (548,43) size 62x85 [fill={[type=SOLID] [color=#000000]}] [data="M 22.3 9.8 L 20 19.1 L 16.3 31.9 L 32.4 31.9 L 28.7 19 C 28.7 19 26.2 9.7 26.2 9.7 L 22.3 9.8 Z M 23.9 20.1 C 23.9 20.1 24.1 19.3 24.3 18.3 C 24.4 18.8 24.8 20.1 24.8 20.1 C 24.8 20.1 26.2 25 27.1 27.9 C 25.1 27.9 23.7 27.9 21.7 27.9 C 22.5 25 23.9 20.1 23.9 20.1 Z"]
            RenderSVGContainer {g} at (487,7) size 187x198
              RenderSVGPath {path} at (487,7) size 187x198 [fill={[type=SOLID] [color=#000000]}] [data="M 31.9 0 L 16.1 0 L 0 52.5 L 15.6 52.5 C 15.6 52.5 18.4 42.3 19 40 C 21.1 40 27.9 40 30 40 C 30.7 42.2 33.7 52.5 33.7 52.5 L 49.7 52.5 L 33.3 0 L 31.9 0 Z M 30.4 4 C 31.2 6.5 42.9 44 44.3 48.5 C 41.6 48.5 38.4 48.5 36.7 48.5 C 36 46.3 33 36 33 36 L 16 36 C 16 36 13.2 46.2 12.6 48.5 C 10.9 48.5 8 48.5 5.5 48.5 C 6.8 44 18.2 6.5 19 4 C 21.1 4 28.3 4 30.4 4 Z"]
              RenderSVGPath {path} at (548,15) size 62x113 [fill={[type=SOLID] [color=#000000]}] [data="M 22.3 9.8 L 20 19.1 L 16.3 31.9 L 32.4 31.9 L 28.7 19 C 28.7 19 26.2 9.7 26.2 9.7 L 24.2 2.1 L 22.3 9.8 Z M 23.9 20.1 C 23.9 20.1 24.1 19.3 24.3 18.3 C 24.4 18.8 24.8 20.1 24.8 20.1 C 24.8 20.1 26.2 25 27.1 27.9 C 25.1 27.9 23.7 27.9 21.7 27.9 C 22.5 25 23.9 20.1 23.9 20.1 Z"]
          RenderSVGContainer {g} at (490,7) size 181x198
            RenderSVGPath {path} at (490,7) size 181x198 [stroke={[type=SOLID] [color=#FF0000] [stroke width=4.00] [miter limit=1.00]}] [data="M 17.5 38.1 L 14.1 50.6 L 2.7 50.6 L 17.5 2 L 31.8 2 L 47 50.5 L 35.2 50.5 L 31.5 38 L 17.5 38 Z M 29.8 29.9 L 26.8 19.6 C 26 16.7 25 13 24.3 10.2 C 23.7 13.1 22.8 16.8 22 19.6 L 19 29.9 L 29.8 29.9 Z"]
          RenderSVGContainer {use} at (490,232) size 181x198 [transform={m=((1.00,0.00)(0.00,1.00)) t=(0.00,60.00)}]
            RenderSVGContainer {g} at (490,232) size 181x198
              RenderSVGPath {path} at (490,232) size 181x198 [stroke={[type=SOLID] [color=#FF0000] [stroke width=4.00] [miter limit=1.00]}] [data="M 17.5 38.1 L 14.1 50.6 L 2.7 50.6 L 17.5 2 L 31.8 2 L 47 50.5 L 35.2 50.5 L 31.5 38 L 17.5 38 Z M 29.8 29.9 L 26.8 19.6 C 26 16.7 25 13 24.3 10.2 C 23.7 13.1 22.8 16.8 22 19.6 L 19 29.9 L 29.8 29.9 Z"]
          RenderSVGContainer {use} at (487,232) size 187x198 [transform={m=((1.00,0.00)(0.00,1.00)) t=(0.00,60.00)}]
            RenderSVGContainer {g} at (487,232) size 187x198
              RenderSVGContainer {g} at (490,232) size 181x198
                RenderSVGPath {path} at (490,232) size 181x198 [fill={[type=SOLID] [color=#000000]}] [data="M 16 51.1 C 16.8 48.2 18.5 41.9 19 40.1 C 21.1 40.1 27.9 40.1 30 40.1 C 30.5 41.8 32.5 48.3 33.3 51.2 L 35.2 52.6 L 47 52.6 L 48.9 50 L 33.8 1.4 L 31.9 0 L 17.5 0 L 15.6 1.4 L 0.8 49.9 L 2.7 52.5 L 14.1 52.5 L 16 51.1 Z M 15.5 37.5 C 14.7 40.4 13 46.7 12.5 48.5 C 10.8 48.5 7.9 48.5 5.4 48.5 C 6.8 44 18.2 6.5 19 4 C 21.1 4 28.3 4 30.4 4 C 31.2 6.5 42.9 44 44.3 48.5 C 41.6 48.5 38.4 48.5 36.7 48.5 C 36.2 46.8 34.2 40.3 33.4 37.5 L 31.5 36.1 L 17.4 36.1 L 15.5 37.5 Z"]
                RenderSVGPath {path} at (551,268) size 55x85 [fill={[type=SOLID] [color=#000000]}] [data="M 22.3 9.8 L 20 19.1 L 17.1 29.3 L 19 31.9 L 29.7 31.9 L 31.6 29.3 L 28.6 19 C 28.6 19 26.1 9.7 26.1 9.7 L 22.3 9.8 Z M 23.9 20.1 C 23.9 20.1 24.1 19.3 24.3 18.3 C 24.4 18.8 24.8 20.1 24.8 20.1 C 24.8 20.1 26.2 25 27.1 27.9 C 25.1 27.9 23.7 27.9 21.7 27.9 C 22.5 25 23.9 20.1 23.9 20.1 Z"]
              RenderSVGContainer {g} at (490,232) size 181x198
                RenderSVGPath {path} at (490,232) size 181x198 [fill={[type=SOLID] [color=#000000]}] [data="M 31.9 0 L 16.1 0 L 0.8 49.9 L 2.7 52.5 L 15.6 52.5 C 15.6 52.5 18.4 42.3 19 40 C 21.1 40 27.9 40 30 40 C 30.7 42.2 33.7 52.5 33.7 52.5 L 47 52.5 L 48.9 49.9 L 33.3 0 L 31.9 0 Z M 30.4 4 C 31.2 6.5 42.9 44 44.3 48.5 C 41.6 48.5 38.4 48.5 36.7 48.5 C 36 46.3 33 36 33 36 L 16 36 C 16 36 13.2 46.2 12.6 48.5 C 10.9 48.5 8 48.5 5.5 48.5 C 6.8 44 18.2 6.5 19 4 C 21.1 4 28.3 4 30.4 4 Z"]
                RenderSVGPath {path} at (551,268) size 55x85 [fill={[type=SOLID] [color=#000000]}] [data="M 22.3 9.8 L 20 19.1 L 17.1 29.3 L 19 31.9 L 29.7 31.9 L 31.6 29.3 L 28.6 19 C 28.6 19 26.1 9.7 26.1 9.7 L 22.3 9.8 Z M 23.9 20.1 C 23.9 20.1 24.1 19.3 24.3 18.3 C 24.4 18.8 24.8 20.1 24.8 20.1 C 24.8 20.1 26.2 25 27.1 27.9 C 25.1 27.9 23.7 27.9 21.7 27.9 C 22.5 25 23.9 20.1 23.9 20.1 Z"]
              RenderSVGContainer {g} at (487,232) size 187x198
                RenderSVGPath {path} at (487,232) size 187x198 [fill={[type=SOLID] [color=#000000]}] [data="M 31.9 0 L 16.1 0 L 0 52.5 L 15.6 52.5 C 15.6 52.5 18.4 42.3 19 40 C 21.1 40 27.9 40 30 40 C 30.7 42.2 33.7 52.5 33.7 52.5 L 49.7 52.5 L 33.3 0 L 31.9 0 Z M 30.4 4 C 31.2 6.5 42.9 44 44.3 48.5 C 41.6 48.5 38.4 48.5 36.7 48.5 C 36 46.3 33 36 33 36 L 16 36 C 16 36 13.2 46.2 12.6 48.5 C 10.9 48.5 8 48.5 5.5 48.5 C 6.8 44 18.2 6.5 19 4 C 21.1 4 28.3 4 30.4 4 Z"]
                RenderSVGPath {path} at (548,268) size 62x85 [fill={[type=SOLID] [color=#000000]}] [data="M 22.3 9.8 L 20 19.1 L 16.3 31.9 L 32.4 31.9 L 28.7 19 C 28.7 19 26.2 9.7 26.2 9.7 L 22.3 9.8 Z M 23.9 20.1 C 23.9 20.1 24.1 19.3 24.3 18.3 C 24.4 18.8 24.8 20.1 24.8 20.1 C 24.8 20.1 26.2 25 27.1 27.9 C 25.1 27.9 23.7 27.9 21.7 27.9 C 22.5 25 23.9 20.1 23.9 20.1 Z"]
              RenderSVGContainer {g} at (487,232) size 187x198
                RenderSVGPath {path} at (487,232) size 187x198 [fill={[type=SOLID] [color=#000000]}] [data="M 31.9 0 L 16.1 0 L 0 52.5 L 15.6 52.5 C 15.6 52.5 18.4 42.3 19 40 C 21.1 40 27.9 40 30 40 C 30.7 42.2 33.7 52.5 33.7 52.5 L 49.7 52.5 L 33.3 0 L 31.9 0 Z M 30.4 4 C 31.2 6.5 42.9 44 44.3 48.5 C 41.6 48.5 38.4 48.5 36.7 48.5 C 36 46.3 33 36 33 36 L 16 36 C 16 36 13.2 46.2 12.6 48.5 C 10.9 48.5 8 48.5 5.5 48.5 C 6.8 44 18.2 6.5 19 4 C 21.1 4 28.3 4 30.4 4 Z"]
                RenderSVGPath {path} at (548,240) size 62x113 [fill={[type=SOLID] [color=#000000]}] [data="M 22.3 9.8 L 20 19.1 L 16.3 31.9 L 32.4 31.9 L 28.7 19 C 28.7 19 26.2 9.7 26.2 9.7 L 24.2 2.1 L 22.3 9.8 Z M 23.9 20.1 C 23.9 20.1 24.1 19.3 24.3 18.3 C 24.4 18.8 24.8 20.1 24.8 20.1 C 24.8 20.1 26.2 25 27.1 27.9 C 25.1 27.9 23.7 27.9 21.7 27.9 C 22.5 25 23.9 20.1 23.9 20.1 Z"]
        RenderSVGPath {path} at (714,20) size 71x418 [transform={m=((0.00,2.00)(-1.00,0.00)) t=(520.00,20.00)}] [stroke={[type=SOLID] [color=#0000FF] [stroke width=10.00] [dash array={5.00}]}] [data="M 15.2 5.4 C 5.5 10.1 1.1 18.8 2 31.7 C 16.8 63.8 140.9 -27.3 129.8 12 C 112.1 75.3 42.2 -8.8 15.2 5.4"]
      RenderSVGText {text} at (5,262) size 417x23 contains 1 chunk(s)
        RenderSVGInlineText {#text} at (0,0) size 417x22
          chunk 1 text run 1 at (5.00,280.00) startOffset 0 endOffset 54 width 416.94: "Animation on: 'stroke-dasharray', 'stroke-dashoffset',"
      RenderSVGText {text} at (5,287) size 426x23 contains 1 chunk(s)
        RenderSVGInlineText {#text} at (0,0) size 426x22
          chunk 1 text run 1 at (5.00,305.00) startOffset 0 endOffset 60 width 425.76: "'stroke-miterlimit', 'stroke-linecap' and 'stroke-linejoin'."
    RenderSVGContainer {g} at (16,516) size 385x64
      RenderSVGText {text} at (10,310) size 231x38 contains 1 chunk(s)
        RenderSVGInlineText {#text} at (0,0) size 231x38
          chunk 1 text run 1 at (10.00,340.00) startOffset 0 endOffset 16 width 230.19: "$Revision: 1.8 $"
    RenderSVGRect {rect} at (0,0) size 800x600 [stroke={[type=SOLID] [color=#000000]}] [x=1.00] [y=1.00] [width=478.00] [height=358.00]
    RenderSVGContainer {g} at (0,0) size 800x39
      RenderSVGRect {rect} at (0,0) size 800x36 [stroke={[type=SOLID] [color=#000000]}] [fill={[type=SOLID] [color=#FF0000]}] [x=1.00] [y=1.00] [width=478.00] [height=20.00]
      RenderSVGText {text} at (205,-1) size 70x24 contains 1 chunk(s)
        RenderSVGInlineText {#text} at (0,0) size 69x24
          chunk 1 (middle anchor) text run 1 at (205.95,18.00) startOffset 0 endOffset 5 width 68.10: "DRAFT"
