layer at (0,0) size 800x600
  RenderView at (0,0) size 800x600
layer at (0,0) size 800x145
  RenderBlock {HTML} at (0,0) size 800x145
    RenderBody {BODY} at (8,16) size 784x121
      RenderBlock {P} at (0,0) size 784x40
        RenderText {#text} at (0,0) size 753x39
          text run at (0,0) width 753: "This tests that clicking in a contenteditable div will set the caret in the right position for RTL text in a LTR block. To test"
          text run at (0,20) width 446: "manually, click the left of the text. The caret should be on the left edge."
      RenderBlock {DIV} at (0,56) size 202x45 [border: (1px solid #000000)]
        RenderText {#text} at (11,11) size 58x22
          text run at (11,11) width 58 RTL: "\x{5E9}\x{5D3}\x{5D4} \x{5D1}\x{5D5}\x{5E8}"
      RenderBlock (anonymous) at (0,101) size 784x20
        RenderText {#text} at (0,0) size 37x19
          text run at (0,0) width 37: "PASS"
        RenderBR {BR} at (37,0) size 0x19
caret: position 0 of child 0 {#text} of child 3 {DIV} of body
