
PASS .foo { & { color: green; } }
PASS .foo { //color: red; color: green; }
PASS .foo {
  &.bar { color: green; }
}
PASS .foo {
  & .bar { color: green; }
}
PASS .foo {
  & > .bar { color: green; }
}
PASS .foo {
  > .bar { color: green; }
}
PASS .foo {
  > & .bar { color: green; }
}
PASS .foo {
  + .bar & { color: green; }
}
PASS .foo {
  .test > & .bar { color: green; }
}
PASS .foo {
  + .bar, .foo, > .lol { color: green; }
}
PASS .foo {
  &:is(.bar, &.baz) { color: green; }
}
PASS .foo {
  .bar& { color: green; }
}
PASS .foo {
  .bar & { color: green; }
}
PASS .foo {
  .bar > & { color: green; }
}
PASS .foo, .bar {
  & + .baz, &.qux { color: green; }
}
PASS .foo {
  & .bar & .baz & .qux { color: green; }
}
PASS .foo {
  @media (min-width: 50px) {
  & { color: green; }
}
}
PASS .foo {
  @media (min-width: 50px) { color: green; }
}
PASS main {
  & > section, & > article {
  & > header { color: green; }
}
}
PASS .foo {
  :has(div) { color: green; }
}
PASS .foo {
  .bar {
  && { color: green; }
}
}
PASS .foo {
 color: red; ident { color: green; }
}
PASS .foo {
 //color: comment; & { color: green; }
}
PASS .foo {
 .bar {
  functionalnotation(div) { color: green; }

}

