The tests in this directory were imported from the W3C repository.
Do NOT modify these tests directly in WebKit.
Instead, create a pull request on the WPT github:
	https://github.com/web-platform-tests/wpt

Then run the Tools/Scripts/import-w3c-tests in WebKit to reimport

Do NOT modify or remove this file.

------------------------------------------------------------------------
Properties requiring vendor prefixes:
None
Property values requiring vendor prefixes:
None
------------------------------------------------------------------------
List of files:
/LayoutTests/imported/w3c/web-platform-tests/css/css-masking/mask-image/mask-clip-1-expected.html
/LayoutTests/imported/w3c/web-platform-tests/css/css-masking/mask-image/mask-clip-1-ref.html
/LayoutTests/imported/w3c/web-platform-tests/css/css-masking/mask-image/mask-clip-1.html
/LayoutTests/imported/w3c/web-platform-tests/css/css-masking/mask-image/mask-clip-2-expected.html
/LayoutTests/imported/w3c/web-platform-tests/css/css-masking/mask-image/mask-clip-2-ref.html
/LayoutTests/imported/w3c/web-platform-tests/css/css-masking/mask-image/mask-clip-2.html
/LayoutTests/imported/w3c/web-platform-tests/css/css-masking/mask-image/mask-composite-1-ref.html
/LayoutTests/imported/w3c/web-platform-tests/css/css-masking/mask-image/mask-composite-1a-expected.html
/LayoutTests/imported/w3c/web-platform-tests/css/css-masking/mask-image/mask-composite-1a.html
/LayoutTests/imported/w3c/web-platform-tests/css/css-masking/mask-image/mask-composite-1b-expected.html
/LayoutTests/imported/w3c/web-platform-tests/css/css-masking/mask-image/mask-composite-1b.html
/LayoutTests/imported/w3c/web-platform-tests/css/css-masking/mask-image/mask-composite-1c-expected.html
/LayoutTests/imported/w3c/web-platform-tests/css/css-masking/mask-image/mask-composite-1c.html
/LayoutTests/imported/w3c/web-platform-tests/css/css-masking/mask-image/mask-composite-1d-expected.html
/LayoutTests/imported/w3c/web-platform-tests/css/css-masking/mask-image/mask-composite-1d.html
/LayoutTests/imported/w3c/web-platform-tests/css/css-masking/mask-image/mask-composite-2-ref.html
/LayoutTests/imported/w3c/web-platform-tests/css/css-masking/mask-image/mask-composite-2a-expected.html
/LayoutTests/imported/w3c/web-platform-tests/css/css-masking/mask-image/mask-composite-2a.html
/LayoutTests/imported/w3c/web-platform-tests/css/css-masking/mask-image/mask-composite-2b-expected.html
/LayoutTests/imported/w3c/web-platform-tests/css/css-masking/mask-image/mask-composite-2b.html
/LayoutTests/imported/w3c/web-platform-tests/css/css-masking/mask-image/mask-composite-2c-expected.html
/LayoutTests/imported/w3c/web-platform-tests/css/css-masking/mask-image/mask-composite-2c.html
/LayoutTests/imported/w3c/web-platform-tests/css/css-masking/mask-image/mask-image-1-ref.html
/LayoutTests/imported/w3c/web-platform-tests/css/css-masking/mask-image/mask-image-1a-expected.html
/LayoutTests/imported/w3c/web-platform-tests/css/css-masking/mask-image/mask-image-1a.html
/LayoutTests/imported/w3c/web-platform-tests/css/css-masking/mask-image/mask-image-1b-expected.html
/LayoutTests/imported/w3c/web-platform-tests/css/css-masking/mask-image/mask-image-1b.html
/LayoutTests/imported/w3c/web-platform-tests/css/css-masking/mask-image/mask-image-1c-expected.html
/LayoutTests/imported/w3c/web-platform-tests/css/css-masking/mask-image/mask-image-1c.html
/LayoutTests/imported/w3c/web-platform-tests/css/css-masking/mask-image/mask-image-1d-expected.html
/LayoutTests/imported/w3c/web-platform-tests/css/css-masking/mask-image/mask-image-1d.html
/LayoutTests/imported/w3c/web-platform-tests/css/css-masking/mask-image/mask-image-2-expected.html
/LayoutTests/imported/w3c/web-platform-tests/css/css-masking/mask-image/mask-image-2-ref.html
/LayoutTests/imported/w3c/web-platform-tests/css/css-masking/mask-image/mask-image-2.html
/LayoutTests/imported/w3c/web-platform-tests/css/css-masking/mask-image/mask-image-3-ref.html
/LayoutTests/imported/w3c/web-platform-tests/css/css-masking/mask-image/mask-image-3a-expected.html
/LayoutTests/imported/w3c/web-platform-tests/css/css-masking/mask-image/mask-image-3a.html
/LayoutTests/imported/w3c/web-platform-tests/css/css-masking/mask-image/mask-image-3b-expected.html
/LayoutTests/imported/w3c/web-platform-tests/css/css-masking/mask-image/mask-image-3b.html
/LayoutTests/imported/w3c/web-platform-tests/css/css-masking/mask-image/mask-image-3c-expected.html
/LayoutTests/imported/w3c/web-platform-tests/css/css-masking/mask-image/mask-image-3c.html
/LayoutTests/imported/w3c/web-platform-tests/css/css-masking/mask-image/mask-image-3d-expected.html
/LayoutTests/imported/w3c/web-platform-tests/css/css-masking/mask-image/mask-image-3d.html
/LayoutTests/imported/w3c/web-platform-tests/css/css-masking/mask-image/mask-image-3e-expected.html
/LayoutTests/imported/w3c/web-platform-tests/css/css-masking/mask-image/mask-image-3e.html
/LayoutTests/imported/w3c/web-platform-tests/css/css-masking/mask-image/mask-image-3f-expected.html
/LayoutTests/imported/w3c/web-platform-tests/css/css-masking/mask-image/mask-image-3f.html
/LayoutTests/imported/w3c/web-platform-tests/css/css-masking/mask-image/mask-image-3g-expected.html
/LayoutTests/imported/w3c/web-platform-tests/css/css-masking/mask-image/mask-image-3g.html
/LayoutTests/imported/w3c/web-platform-tests/css/css-masking/mask-image/mask-image-3h-expected.html
/LayoutTests/imported/w3c/web-platform-tests/css/css-masking/mask-image/mask-image-3h.html
/LayoutTests/imported/w3c/web-platform-tests/css/css-masking/mask-image/mask-image-3i-expected.html
/LayoutTests/imported/w3c/web-platform-tests/css/css-masking/mask-image/mask-image-3i.html
/LayoutTests/imported/w3c/web-platform-tests/css/css-masking/mask-image/mask-image-4a-expected.html
/LayoutTests/imported/w3c/web-platform-tests/css/css-masking/mask-image/mask-image-4a.html
/LayoutTests/imported/w3c/web-platform-tests/css/css-masking/mask-image/mask-image-4b-expected.html
/LayoutTests/imported/w3c/web-platform-tests/css/css-masking/mask-image/mask-image-4b.html
/LayoutTests/imported/w3c/web-platform-tests/css/css-masking/mask-image/mask-image-5-expected.html
/LayoutTests/imported/w3c/web-platform-tests/css/css-masking/mask-image/mask-image-5-ref.html
/LayoutTests/imported/w3c/web-platform-tests/css/css-masking/mask-image/mask-image-5.html
/LayoutTests/imported/w3c/web-platform-tests/css/css-masking/mask-image/mask-image-6-expected.html
/LayoutTests/imported/w3c/web-platform-tests/css/css-masking/mask-image/mask-image-6-ref.html
/LayoutTests/imported/w3c/web-platform-tests/css/css-masking/mask-image/mask-image-6.html
/LayoutTests/imported/w3c/web-platform-tests/css/css-masking/mask-image/mask-image-clip-exclude-expected.html
/LayoutTests/imported/w3c/web-platform-tests/css/css-masking/mask-image/mask-image-clip-exclude-ref.html
/LayoutTests/imported/w3c/web-platform-tests/css/css-masking/mask-image/mask-image-clip-exclude.html
/LayoutTests/imported/w3c/web-platform-tests/css/css-masking/mask-image/mask-image-data-url-image-expected.html
/LayoutTests/imported/w3c/web-platform-tests/css/css-masking/mask-image/mask-image-data-url-image.html
/LayoutTests/imported/w3c/web-platform-tests/css/css-masking/mask-image/mask-image-ib-split-2-expected.html
/LayoutTests/imported/w3c/web-platform-tests/css/css-masking/mask-image/mask-image-ib-split-2.html
/LayoutTests/imported/w3c/web-platform-tests/css/css-masking/mask-image/mask-image-ib-split-expected.html
/LayoutTests/imported/w3c/web-platform-tests/css/css-masking/mask-image/mask-image-ib-split.html
/LayoutTests/imported/w3c/web-platform-tests/css/css-masking/mask-image/mask-image-svg-child-will-change-expected.html
/LayoutTests/imported/w3c/web-platform-tests/css/css-masking/mask-image/mask-image-svg-child-will-change.html
/LayoutTests/imported/w3c/web-platform-tests/css/css-masking/mask-image/mask-image-url-image-expected.html
/LayoutTests/imported/w3c/web-platform-tests/css/css-masking/mask-image/mask-image-url-image-hash-expected.html
/LayoutTests/imported/w3c/web-platform-tests/css/css-masking/mask-image/mask-image-url-image-hash.html
/LayoutTests/imported/w3c/web-platform-tests/css/css-masking/mask-image/mask-image-url-image.html
/LayoutTests/imported/w3c/web-platform-tests/css/css-masking/mask-image/mask-image-url-local-mask-expected.html
/LayoutTests/imported/w3c/web-platform-tests/css/css-masking/mask-image/mask-image-url-local-mask.html
/LayoutTests/imported/w3c/web-platform-tests/css/css-masking/mask-image/mask-image-url-remote-mask-expected.html
/LayoutTests/imported/w3c/web-platform-tests/css/css-masking/mask-image/mask-image-url-remote-mask.html
/LayoutTests/imported/w3c/web-platform-tests/css/css-masking/mask-image/mask-mode-a-expected.html
/LayoutTests/imported/w3c/web-platform-tests/css/css-masking/mask-image/mask-mode-a.html
/LayoutTests/imported/w3c/web-platform-tests/css/css-masking/mask-image/mask-mode-b-expected.html
/LayoutTests/imported/w3c/web-platform-tests/css/css-masking/mask-image/mask-mode-b.html
/LayoutTests/imported/w3c/web-platform-tests/css/css-masking/mask-image/mask-mode-c-expected.html
/LayoutTests/imported/w3c/web-platform-tests/css/css-masking/mask-image/mask-mode-c.html
/LayoutTests/imported/w3c/web-platform-tests/css/css-masking/mask-image/mask-mode-d-expected.html
/LayoutTests/imported/w3c/web-platform-tests/css/css-masking/mask-image/mask-mode-d.html
/LayoutTests/imported/w3c/web-platform-tests/css/css-masking/mask-image/mask-mode-ref.html
/LayoutTests/imported/w3c/web-platform-tests/css/css-masking/mask-image/mask-mode-to-mask-type-expected.html
/LayoutTests/imported/w3c/web-platform-tests/css/css-masking/mask-image/mask-mode-to-mask-type-ref.html
/LayoutTests/imported/w3c/web-platform-tests/css/css-masking/mask-image/mask-mode-to-mask-type.html
/LayoutTests/imported/w3c/web-platform-tests/css/css-masking/mask-image/mask-opacity-1-ref.html
/LayoutTests/imported/w3c/web-platform-tests/css/css-masking/mask-image/mask-opacity-1a-expected.html
/LayoutTests/imported/w3c/web-platform-tests/css/css-masking/mask-image/mask-opacity-1a.html
/LayoutTests/imported/w3c/web-platform-tests/css/css-masking/mask-image/mask-opacity-1b-expected.html
/LayoutTests/imported/w3c/web-platform-tests/css/css-masking/mask-image/mask-opacity-1b.html
/LayoutTests/imported/w3c/web-platform-tests/css/css-masking/mask-image/mask-opacity-1c-expected.html
/LayoutTests/imported/w3c/web-platform-tests/css/css-masking/mask-image/mask-opacity-1c.html
/LayoutTests/imported/w3c/web-platform-tests/css/css-masking/mask-image/mask-opacity-1d-expected.html
/LayoutTests/imported/w3c/web-platform-tests/css/css-masking/mask-image/mask-opacity-1d.html
/LayoutTests/imported/w3c/web-platform-tests/css/css-masking/mask-image/mask-opacity-1e-expected.html
/LayoutTests/imported/w3c/web-platform-tests/css/css-masking/mask-image/mask-opacity-1e.html
/LayoutTests/imported/w3c/web-platform-tests/css/css-masking/mask-image/mask-origin-1-expected.html
/LayoutTests/imported/w3c/web-platform-tests/css/css-masking/mask-image/mask-origin-1-ref.html
/LayoutTests/imported/w3c/web-platform-tests/css/css-masking/mask-image/mask-origin-1.html
/LayoutTests/imported/w3c/web-platform-tests/css/css-masking/mask-image/mask-origin-2-expected.html
/LayoutTests/imported/w3c/web-platform-tests/css/css-masking/mask-image/mask-origin-2-ref.html
/LayoutTests/imported/w3c/web-platform-tests/css/css-masking/mask-image/mask-origin-2.html
/LayoutTests/imported/w3c/web-platform-tests/css/css-masking/mask-image/mask-origin-3-expected.html
/LayoutTests/imported/w3c/web-platform-tests/css/css-masking/mask-image/mask-origin-3-ref.html
/LayoutTests/imported/w3c/web-platform-tests/css/css-masking/mask-image/mask-origin-3.html
/LayoutTests/imported/w3c/web-platform-tests/css/css-masking/mask-image/mask-position-1-ref.html
/LayoutTests/imported/w3c/web-platform-tests/css/css-masking/mask-image/mask-position-1a-expected.html
/LayoutTests/imported/w3c/web-platform-tests/css/css-masking/mask-image/mask-position-1a.html
/LayoutTests/imported/w3c/web-platform-tests/css/css-masking/mask-image/mask-position-1b-expected.html
/LayoutTests/imported/w3c/web-platform-tests/css/css-masking/mask-image/mask-position-1b.html
/LayoutTests/imported/w3c/web-platform-tests/css/css-masking/mask-image/mask-position-1c-expected.html
/LayoutTests/imported/w3c/web-platform-tests/css/css-masking/mask-image/mask-position-1c.html
/LayoutTests/imported/w3c/web-platform-tests/css/css-masking/mask-image/mask-position-2-ref.html
/LayoutTests/imported/w3c/web-platform-tests/css/css-masking/mask-image/mask-position-2a-expected.html
/LayoutTests/imported/w3c/web-platform-tests/css/css-masking/mask-image/mask-position-2a.html
/LayoutTests/imported/w3c/web-platform-tests/css/css-masking/mask-image/mask-position-2b-expected.html
/LayoutTests/imported/w3c/web-platform-tests/css/css-masking/mask-image/mask-position-2b.html
/LayoutTests/imported/w3c/web-platform-tests/css/css-masking/mask-image/mask-position-3-ref.html
/LayoutTests/imported/w3c/web-platform-tests/css/css-masking/mask-image/mask-position-3a-expected.html
/LayoutTests/imported/w3c/web-platform-tests/css/css-masking/mask-image/mask-position-3a.html
/LayoutTests/imported/w3c/web-platform-tests/css/css-masking/mask-image/mask-position-3b-expected.html
/LayoutTests/imported/w3c/web-platform-tests/css/css-masking/mask-image/mask-position-3b.html
/LayoutTests/imported/w3c/web-platform-tests/css/css-masking/mask-image/mask-position-4-ref.html
/LayoutTests/imported/w3c/web-platform-tests/css/css-masking/mask-image/mask-position-4a-expected.html
/LayoutTests/imported/w3c/web-platform-tests/css/css-masking/mask-image/mask-position-4a.html
/LayoutTests/imported/w3c/web-platform-tests/css/css-masking/mask-image/mask-position-4b-expected.html
/LayoutTests/imported/w3c/web-platform-tests/css/css-masking/mask-image/mask-position-4b.html
/LayoutTests/imported/w3c/web-platform-tests/css/css-masking/mask-image/mask-position-4c-expected.html
/LayoutTests/imported/w3c/web-platform-tests/css/css-masking/mask-image/mask-position-4c.html
/LayoutTests/imported/w3c/web-platform-tests/css/css-masking/mask-image/mask-position-4d-expected.html
/LayoutTests/imported/w3c/web-platform-tests/css/css-masking/mask-image/mask-position-4d.html
/LayoutTests/imported/w3c/web-platform-tests/css/css-masking/mask-image/mask-position-5-expected.html
/LayoutTests/imported/w3c/web-platform-tests/css/css-masking/mask-image/mask-position-5-ref.html
/LayoutTests/imported/w3c/web-platform-tests/css/css-masking/mask-image/mask-position-5.html
/LayoutTests/imported/w3c/web-platform-tests/css/css-masking/mask-image/mask-position-6-expected.html
/LayoutTests/imported/w3c/web-platform-tests/css/css-masking/mask-image/mask-position-6-ref.html
/LayoutTests/imported/w3c/web-platform-tests/css/css-masking/mask-image/mask-position-6.html
/LayoutTests/imported/w3c/web-platform-tests/css/css-masking/mask-image/mask-position-7-expected.html
/LayoutTests/imported/w3c/web-platform-tests/css/css-masking/mask-image/mask-position-7-ref.html
/LayoutTests/imported/w3c/web-platform-tests/css/css-masking/mask-image/mask-position-7.html
/LayoutTests/imported/w3c/web-platform-tests/css/css-masking/mask-image/mask-repeat-1-expected.html
/LayoutTests/imported/w3c/web-platform-tests/css/css-masking/mask-image/mask-repeat-1-ref.html
/LayoutTests/imported/w3c/web-platform-tests/css/css-masking/mask-image/mask-repeat-1.html
/LayoutTests/imported/w3c/web-platform-tests/css/css-masking/mask-image/mask-repeat-2-expected.html
/LayoutTests/imported/w3c/web-platform-tests/css/css-masking/mask-image/mask-repeat-2-ref.html
/LayoutTests/imported/w3c/web-platform-tests/css/css-masking/mask-image/mask-repeat-2.html
/LayoutTests/imported/w3c/web-platform-tests/css/css-masking/mask-image/mask-repeat-3-expected.html
/LayoutTests/imported/w3c/web-platform-tests/css/css-masking/mask-image/mask-repeat-3-ref.html
/LayoutTests/imported/w3c/web-platform-tests/css/css-masking/mask-image/mask-repeat-3.html
/LayoutTests/imported/w3c/web-platform-tests/css/css-masking/mask-image/mask-size-auto-auto-expected.html
/LayoutTests/imported/w3c/web-platform-tests/css/css-masking/mask-image/mask-size-auto-auto.html
/LayoutTests/imported/w3c/web-platform-tests/css/css-masking/mask-image/mask-size-auto-expected.html
/LayoutTests/imported/w3c/web-platform-tests/css/css-masking/mask-image/mask-size-auto-length-expected.html
/LayoutTests/imported/w3c/web-platform-tests/css/css-masking/mask-image/mask-size-auto-length-ref.html
/LayoutTests/imported/w3c/web-platform-tests/css/css-masking/mask-image/mask-size-auto-length.html
/LayoutTests/imported/w3c/web-platform-tests/css/css-masking/mask-image/mask-size-auto-percent-expected.html
/LayoutTests/imported/w3c/web-platform-tests/css/css-masking/mask-image/mask-size-auto-percent.html
/LayoutTests/imported/w3c/web-platform-tests/css/css-masking/mask-image/mask-size-auto-ref.html
/LayoutTests/imported/w3c/web-platform-tests/css/css-masking/mask-image/mask-size-auto.html
/LayoutTests/imported/w3c/web-platform-tests/css/css-masking/mask-image/mask-size-contain-clip-border-expected.html
/LayoutTests/imported/w3c/web-platform-tests/css/css-masking/mask-image/mask-size-contain-clip-border-ref.html
/LayoutTests/imported/w3c/web-platform-tests/css/css-masking/mask-image/mask-size-contain-clip-border.html
/LayoutTests/imported/w3c/web-platform-tests/css/css-masking/mask-image/mask-size-contain-clip-padding-expected.html
/LayoutTests/imported/w3c/web-platform-tests/css/css-masking/mask-image/mask-size-contain-clip-padding-ref.html
/LayoutTests/imported/w3c/web-platform-tests/css/css-masking/mask-image/mask-size-contain-clip-padding.html
/LayoutTests/imported/w3c/web-platform-tests/css/css-masking/mask-image/mask-size-contain-expected.html
/LayoutTests/imported/w3c/web-platform-tests/css/css-masking/mask-image/mask-size-contain-position-fifty-fifty-expected.html
/LayoutTests/imported/w3c/web-platform-tests/css/css-masking/mask-image/mask-size-contain-position-fifty-fifty-ref.html
/LayoutTests/imported/w3c/web-platform-tests/css/css-masking/mask-image/mask-size-contain-position-fifty-fifty.html
/LayoutTests/imported/w3c/web-platform-tests/css/css-masking/mask-image/mask-size-contain-ref.html
/LayoutTests/imported/w3c/web-platform-tests/css/css-masking/mask-image/mask-size-contain.html
/LayoutTests/imported/w3c/web-platform-tests/css/css-masking/mask-image/mask-size-cover-expected.html
/LayoutTests/imported/w3c/web-platform-tests/css/css-masking/mask-image/mask-size-cover-ref.html
/LayoutTests/imported/w3c/web-platform-tests/css/css-masking/mask-image/mask-size-cover.html
/LayoutTests/imported/w3c/web-platform-tests/css/css-masking/mask-image/mask-size-length-auto-expected.html
/LayoutTests/imported/w3c/web-platform-tests/css/css-masking/mask-image/mask-size-length-auto.html
/LayoutTests/imported/w3c/web-platform-tests/css/css-masking/mask-image/mask-size-length-expected.html
/LayoutTests/imported/w3c/web-platform-tests/css/css-masking/mask-image/mask-size-length-length-expected.html
/LayoutTests/imported/w3c/web-platform-tests/css/css-masking/mask-image/mask-size-length-length-ref.html
/LayoutTests/imported/w3c/web-platform-tests/css/css-masking/mask-image/mask-size-length-length.html
/LayoutTests/imported/w3c/web-platform-tests/css/css-masking/mask-image/mask-size-length-percent-expected.html
/LayoutTests/imported/w3c/web-platform-tests/css/css-masking/mask-image/mask-size-length-percent-ref.html
/LayoutTests/imported/w3c/web-platform-tests/css/css-masking/mask-image/mask-size-length-percent.html
/LayoutTests/imported/w3c/web-platform-tests/css/css-masking/mask-image/mask-size-length.html
/LayoutTests/imported/w3c/web-platform-tests/css/css-masking/mask-image/mask-size-percent-auto-expected.html
/LayoutTests/imported/w3c/web-platform-tests/css/css-masking/mask-image/mask-size-percent-auto.html
/LayoutTests/imported/w3c/web-platform-tests/css/css-masking/mask-image/mask-size-percent-expected.html
/LayoutTests/imported/w3c/web-platform-tests/css/css-masking/mask-image/mask-size-percent-length-expected.html
/LayoutTests/imported/w3c/web-platform-tests/css/css-masking/mask-image/mask-size-percent-length.html
/LayoutTests/imported/w3c/web-platform-tests/css/css-masking/mask-image/mask-size-percent-percent-expected.html
/LayoutTests/imported/w3c/web-platform-tests/css/css-masking/mask-image/mask-size-percent-percent-ref.html
/LayoutTests/imported/w3c/web-platform-tests/css/css-masking/mask-image/mask-size-percent-percent-stretch-expected.html
/LayoutTests/imported/w3c/web-platform-tests/css/css-masking/mask-image/mask-size-percent-percent-stretch-ref.html
/LayoutTests/imported/w3c/web-platform-tests/css/css-masking/mask-image/mask-size-percent-percent-stretch.html
/LayoutTests/imported/w3c/web-platform-tests/css/css-masking/mask-image/mask-size-percent-percent.html
/LayoutTests/imported/w3c/web-platform-tests/css/css-masking/mask-image/mask-size-percent.html
