The tests in this directory were imported from the W3C repository.
Do NOT modify these tests directly in WebKit.
Instead, create a pull request on the WPT github:
	https://github.com/web-platform-tests/wpt

Then run the Tools/Scripts/import-w3c-tests in WebKit to reimport

Do NOT modify or remove this file.

------------------------------------------------------------------------
Properties requiring vendor prefixes:
None
Property values requiring vendor prefixes:
None
------------------------------------------------------------------------
List of files:
/LayoutTests/imported/w3c/web-platform-tests/css/css-flexbox/alignment/flex-align-baseline-001.html
/LayoutTests/imported/w3c/web-platform-tests/css/css-flexbox/alignment/flex-align-baseline-002.html
/LayoutTests/imported/w3c/web-platform-tests/css/css-flexbox/alignment/flex-align-baseline-003.html
/LayoutTests/imported/w3c/web-platform-tests/css/css-flexbox/alignment/flex-align-baseline-004.html
/LayoutTests/imported/w3c/web-platform-tests/css/css-flexbox/alignment/flex-align-baseline-005.html
/LayoutTests/imported/w3c/web-platform-tests/css/css-flexbox/alignment/flex-align-baseline-006.html
/LayoutTests/imported/w3c/web-platform-tests/css/css-flexbox/alignment/flex-align-baseline-007.html
/LayoutTests/imported/w3c/web-platform-tests/css/css-flexbox/alignment/flex-align-baseline-fieldset-001.html
/LayoutTests/imported/w3c/web-platform-tests/css/css-flexbox/alignment/flex-align-baseline-fieldset-002.html
/LayoutTests/imported/w3c/web-platform-tests/css/css-flexbox/alignment/flex-align-baseline-fieldset-003.html
/LayoutTests/imported/w3c/web-platform-tests/css/css-flexbox/alignment/flex-align-baseline-flex-001.html
/LayoutTests/imported/w3c/web-platform-tests/css/css-flexbox/alignment/flex-align-baseline-flex-002.html
/LayoutTests/imported/w3c/web-platform-tests/css/css-flexbox/alignment/flex-align-baseline-flex-003.html
/LayoutTests/imported/w3c/web-platform-tests/css/css-flexbox/alignment/flex-align-baseline-flex-004.html
/LayoutTests/imported/w3c/web-platform-tests/css/css-flexbox/alignment/flex-align-baseline-grid-001.html
/LayoutTests/imported/w3c/web-platform-tests/css/css-flexbox/alignment/flex-align-baseline-grid-002.html
/LayoutTests/imported/w3c/web-platform-tests/css/css-flexbox/alignment/flex-align-baseline-grid-003.html
/LayoutTests/imported/w3c/web-platform-tests/css/css-flexbox/alignment/flex-align-baseline-line-clamp-001.tentative.html
/LayoutTests/imported/w3c/web-platform-tests/css/css-flexbox/alignment/flex-align-baseline-line-clamp-002.tentative.html
/LayoutTests/imported/w3c/web-platform-tests/css/css-flexbox/alignment/flex-align-baseline-line-clamp-003.tentative.html
/LayoutTests/imported/w3c/web-platform-tests/css/css-flexbox/alignment/flex-align-baseline-overflow-001.html
/LayoutTests/imported/w3c/web-platform-tests/css/css-flexbox/alignment/flex-align-baseline-overflow-002.html
/LayoutTests/imported/w3c/web-platform-tests/css/css-flexbox/alignment/flex-align-baseline-overflow-003.html
/LayoutTests/imported/w3c/web-platform-tests/css/css-flexbox/alignment/flex-align-baseline-table-001.html
/LayoutTests/imported/w3c/web-platform-tests/css/css-flexbox/alignment/flex-align-baseline-table-002.html
/LayoutTests/imported/w3c/web-platform-tests/css/css-flexbox/alignment/flex-align-baseline-table-003.html
