The tests in this directory were imported from the W3C repository.
Do NOT modify these tests directly in WebKit.
Instead, create a pull request on the WPT github:
	https://github.com/web-platform-tests/wpt

Then run the Tools/Scripts/import-w3c-tests in WebKit to reimport

Do NOT modify or remove this file.

------------------------------------------------------------------------
Properties requiring vendor prefixes:
None
Property values requiring vendor prefixes:
None
------------------------------------------------------------------------
List of files:
/LayoutTests/imported/w3c/web-platform-tests/mathml/presentation-markup/operators/embellished-operator-001-crash.html
/LayoutTests/imported/w3c/web-platform-tests/mathml/presentation-markup/operators/embellished-operator-001.html
/LayoutTests/imported/w3c/web-platform-tests/mathml/presentation-markup/operators/embellished-operator-002.html
/LayoutTests/imported/w3c/web-platform-tests/mathml/presentation-markup/operators/embellished-operator-003.html
/LayoutTests/imported/w3c/web-platform-tests/mathml/presentation-markup/operators/embellished-operator-dynamic-001-expected.html
/LayoutTests/imported/w3c/web-platform-tests/mathml/presentation-markup/operators/embellished-operator-dynamic-001-ref.html
/LayoutTests/imported/w3c/web-platform-tests/mathml/presentation-markup/operators/embellished-operator-dynamic-001.html
/LayoutTests/imported/w3c/web-platform-tests/mathml/presentation-markup/operators/embellished-operator-dynamic-002.html
/LayoutTests/imported/w3c/web-platform-tests/mathml/presentation-markup/operators/largeop-hit-testing.html
/LayoutTests/imported/w3c/web-platform-tests/mathml/presentation-markup/operators/mo-axis-height-1.html
/LayoutTests/imported/w3c/web-platform-tests/mathml/presentation-markup/operators/mo-font-relative-lengths-001.html
/LayoutTests/imported/w3c/web-platform-tests/mathml/presentation-markup/operators/mo-form-dynamic-002-expected.html
/LayoutTests/imported/w3c/web-platform-tests/mathml/presentation-markup/operators/mo-form-dynamic-002-ref.html
/LayoutTests/imported/w3c/web-platform-tests/mathml/presentation-markup/operators/mo-form-dynamic-002.html
/LayoutTests/imported/w3c/web-platform-tests/mathml/presentation-markup/operators/mo-form-dynamic-expected.html
/LayoutTests/imported/w3c/web-platform-tests/mathml/presentation-markup/operators/mo-form-dynamic-ref.html
/LayoutTests/imported/w3c/web-platform-tests/mathml/presentation-markup/operators/mo-form-dynamic.html
/LayoutTests/imported/w3c/web-platform-tests/mathml/presentation-markup/operators/mo-form-expected.html
/LayoutTests/imported/w3c/web-platform-tests/mathml/presentation-markup/operators/mo-form-fallback-expected.html
/LayoutTests/imported/w3c/web-platform-tests/mathml/presentation-markup/operators/mo-form-fallback-ref.html
/LayoutTests/imported/w3c/web-platform-tests/mathml/presentation-markup/operators/mo-form-fallback.html
/LayoutTests/imported/w3c/web-platform-tests/mathml/presentation-markup/operators/mo-form-minus-plus-expected.html
/LayoutTests/imported/w3c/web-platform-tests/mathml/presentation-markup/operators/mo-form-minus-plus-ref.html
/LayoutTests/imported/w3c/web-platform-tests/mathml/presentation-markup/operators/mo-form-minus-plus.html
/LayoutTests/imported/w3c/web-platform-tests/mathml/presentation-markup/operators/mo-form-ref.html
/LayoutTests/imported/w3c/web-platform-tests/mathml/presentation-markup/operators/mo-form.html
/LayoutTests/imported/w3c/web-platform-tests/mathml/presentation-markup/operators/mo-lspace-rspace-2-expected.html
/LayoutTests/imported/w3c/web-platform-tests/mathml/presentation-markup/operators/mo-lspace-rspace-2-ref.html
/LayoutTests/imported/w3c/web-platform-tests/mathml/presentation-markup/operators/mo-lspace-rspace-2.html
/LayoutTests/imported/w3c/web-platform-tests/mathml/presentation-markup/operators/mo-lspace-rspace-3-expected.html
/LayoutTests/imported/w3c/web-platform-tests/mathml/presentation-markup/operators/mo-lspace-rspace-3-ref.html
/LayoutTests/imported/w3c/web-platform-tests/mathml/presentation-markup/operators/mo-lspace-rspace-3.html
/LayoutTests/imported/w3c/web-platform-tests/mathml/presentation-markup/operators/mo-lspace-rspace-4-expected.html
/LayoutTests/imported/w3c/web-platform-tests/mathml/presentation-markup/operators/mo-lspace-rspace-4-ref.html
/LayoutTests/imported/w3c/web-platform-tests/mathml/presentation-markup/operators/mo-lspace-rspace-4.html
/LayoutTests/imported/w3c/web-platform-tests/mathml/presentation-markup/operators/mo-lspace-rspace-dynamic-expected.html
/LayoutTests/imported/w3c/web-platform-tests/mathml/presentation-markup/operators/mo-lspace-rspace-dynamic-ref.html
/LayoutTests/imported/w3c/web-platform-tests/mathml/presentation-markup/operators/mo-lspace-rspace-dynamic.html
/LayoutTests/imported/w3c/web-platform-tests/mathml/presentation-markup/operators/mo-lspace-rspace-expected.html
/LayoutTests/imported/w3c/web-platform-tests/mathml/presentation-markup/operators/mo-lspace-rspace-ref.html
/LayoutTests/imported/w3c/web-platform-tests/mathml/presentation-markup/operators/mo-lspace-rspace.html
/LayoutTests/imported/w3c/web-platform-tests/mathml/presentation-markup/operators/mo-minsize-maxsize-001.html
/LayoutTests/imported/w3c/web-platform-tests/mathml/presentation-markup/operators/mo-movablelimits-and-embellished-operator-expected.html
/LayoutTests/imported/w3c/web-platform-tests/mathml/presentation-markup/operators/mo-movablelimits-and-embellished-operator-ref.html
/LayoutTests/imported/w3c/web-platform-tests/mathml/presentation-markup/operators/mo-movablelimits-and-embellished-operator.html
/LayoutTests/imported/w3c/web-platform-tests/mathml/presentation-markup/operators/mo-movablelimits-default-expected.html
/LayoutTests/imported/w3c/web-platform-tests/mathml/presentation-markup/operators/mo-movablelimits-default-ref.html
/LayoutTests/imported/w3c/web-platform-tests/mathml/presentation-markup/operators/mo-movablelimits-default.html
/LayoutTests/imported/w3c/web-platform-tests/mathml/presentation-markup/operators/mo-movablelimits-dynamic-expected.html
/LayoutTests/imported/w3c/web-platform-tests/mathml/presentation-markup/operators/mo-movablelimits-dynamic-ref.html
/LayoutTests/imported/w3c/web-platform-tests/mathml/presentation-markup/operators/mo-movablelimits-dynamic.html
/LayoutTests/imported/w3c/web-platform-tests/mathml/presentation-markup/operators/mo-movablelimits-expected.html
/LayoutTests/imported/w3c/web-platform-tests/mathml/presentation-markup/operators/mo-movablelimits-from-in-flow-expected.html
/LayoutTests/imported/w3c/web-platform-tests/mathml/presentation-markup/operators/mo-movablelimits-from-in-flow-ref.html
/LayoutTests/imported/w3c/web-platform-tests/mathml/presentation-markup/operators/mo-movablelimits-from-in-flow.html
/LayoutTests/imported/w3c/web-platform-tests/mathml/presentation-markup/operators/mo-movablelimits-ref.html
/LayoutTests/imported/w3c/web-platform-tests/mathml/presentation-markup/operators/mo-movablelimits.html
/LayoutTests/imported/w3c/web-platform-tests/mathml/presentation-markup/operators/mo-not-in-dictionary-lspace-rspace-expected.html
/LayoutTests/imported/w3c/web-platform-tests/mathml/presentation-markup/operators/mo-not-in-dictionary-lspace-rspace-ref.html
/LayoutTests/imported/w3c/web-platform-tests/mathml/presentation-markup/operators/mo-not-in-dictionary-lspace-rspace.html
/LayoutTests/imported/w3c/web-platform-tests/mathml/presentation-markup/operators/mo-not-in-dictionary-movablelimits-expected.html
/LayoutTests/imported/w3c/web-platform-tests/mathml/presentation-markup/operators/mo-not-in-dictionary-movablelimits-ref.html
/LayoutTests/imported/w3c/web-platform-tests/mathml/presentation-markup/operators/mo-not-in-dictionary-movablelimits.html
/LayoutTests/imported/w3c/web-platform-tests/mathml/presentation-markup/operators/mo-paint-lspace-rspace-expected.html
/LayoutTests/imported/w3c/web-platform-tests/mathml/presentation-markup/operators/mo-paint-lspace-rspace-ref.html
/LayoutTests/imported/w3c/web-platform-tests/mathml/presentation-markup/operators/mo-paint-lspace-rspace.html
/LayoutTests/imported/w3c/web-platform-tests/mathml/presentation-markup/operators/mo-single-char-and-children-expected.html
/LayoutTests/imported/w3c/web-platform-tests/mathml/presentation-markup/operators/mo-single-char-and-children-ref.html
/LayoutTests/imported/w3c/web-platform-tests/mathml/presentation-markup/operators/mo-single-char-and-children.html
/LayoutTests/imported/w3c/web-platform-tests/mathml/presentation-markup/operators/mo-stretch-properties-001.html
/LayoutTests/imported/w3c/web-platform-tests/mathml/presentation-markup/operators/mo-stretch-properties-dynamic-001.html
/LayoutTests/imported/w3c/web-platform-tests/mathml/presentation-markup/operators/op-dict-1-expected-mismatch.html
/LayoutTests/imported/w3c/web-platform-tests/mathml/presentation-markup/operators/op-dict-1-notref.html
/LayoutTests/imported/w3c/web-platform-tests/mathml/presentation-markup/operators/op-dict-1.html
/LayoutTests/imported/w3c/web-platform-tests/mathml/presentation-markup/operators/op-dict-12-expected.html
/LayoutTests/imported/w3c/web-platform-tests/mathml/presentation-markup/operators/op-dict-12-ref.html
/LayoutTests/imported/w3c/web-platform-tests/mathml/presentation-markup/operators/op-dict-12.html
/LayoutTests/imported/w3c/web-platform-tests/mathml/presentation-markup/operators/op-dict-13-expected-mismatch.html
/LayoutTests/imported/w3c/web-platform-tests/mathml/presentation-markup/operators/op-dict-13-notref.html
/LayoutTests/imported/w3c/web-platform-tests/mathml/presentation-markup/operators/op-dict-13.html
/LayoutTests/imported/w3c/web-platform-tests/mathml/presentation-markup/operators/op-dict-2-expected.html
/LayoutTests/imported/w3c/web-platform-tests/mathml/presentation-markup/operators/op-dict-2-ref.html
/LayoutTests/imported/w3c/web-platform-tests/mathml/presentation-markup/operators/op-dict-2.html
/LayoutTests/imported/w3c/web-platform-tests/mathml/presentation-markup/operators/op-dict-3-expected-mismatch.html
/LayoutTests/imported/w3c/web-platform-tests/mathml/presentation-markup/operators/op-dict-3-notref.html
/LayoutTests/imported/w3c/web-platform-tests/mathml/presentation-markup/operators/op-dict-3.html
/LayoutTests/imported/w3c/web-platform-tests/mathml/presentation-markup/operators/op-dict-4-expected.html
/LayoutTests/imported/w3c/web-platform-tests/mathml/presentation-markup/operators/op-dict-4-ref.html
/LayoutTests/imported/w3c/web-platform-tests/mathml/presentation-markup/operators/op-dict-4.html
/LayoutTests/imported/w3c/web-platform-tests/mathml/presentation-markup/operators/op-dict-5-expected-mismatch.html
/LayoutTests/imported/w3c/web-platform-tests/mathml/presentation-markup/operators/op-dict-5-notref.html
/LayoutTests/imported/w3c/web-platform-tests/mathml/presentation-markup/operators/op-dict-5.html
/LayoutTests/imported/w3c/web-platform-tests/mathml/presentation-markup/operators/op-dict-6-expected.html
/LayoutTests/imported/w3c/web-platform-tests/mathml/presentation-markup/operators/op-dict-6-ref.html
/LayoutTests/imported/w3c/web-platform-tests/mathml/presentation-markup/operators/op-dict-6.html
/LayoutTests/imported/w3c/web-platform-tests/mathml/presentation-markup/operators/op-dict-7-expected-mismatch.html
/LayoutTests/imported/w3c/web-platform-tests/mathml/presentation-markup/operators/op-dict-7-notref.html
/LayoutTests/imported/w3c/web-platform-tests/mathml/presentation-markup/operators/op-dict-7.html
/LayoutTests/imported/w3c/web-platform-tests/mathml/presentation-markup/operators/op-dict-8-expected.html
/LayoutTests/imported/w3c/web-platform-tests/mathml/presentation-markup/operators/op-dict-8-ref.html
/LayoutTests/imported/w3c/web-platform-tests/mathml/presentation-markup/operators/op-dict-8.html
/LayoutTests/imported/w3c/web-platform-tests/mathml/presentation-markup/operators/op-dict-9-expected-mismatch.html
/LayoutTests/imported/w3c/web-platform-tests/mathml/presentation-markup/operators/op-dict-9-notref.html
/LayoutTests/imported/w3c/web-platform-tests/mathml/presentation-markup/operators/op-dict-9.html
/LayoutTests/imported/w3c/web-platform-tests/mathml/presentation-markup/operators/operator-dictionary-arabic-001-expected.html
/LayoutTests/imported/w3c/web-platform-tests/mathml/presentation-markup/operators/operator-dictionary-arabic-001-ref.html
/LayoutTests/imported/w3c/web-platform-tests/mathml/presentation-markup/operators/operator-dictionary-arabic-001.html
/LayoutTests/imported/w3c/web-platform-tests/mathml/presentation-markup/operators/operator-dictionary-arabic-002-expected.html
/LayoutTests/imported/w3c/web-platform-tests/mathml/presentation-markup/operators/operator-dictionary-arabic-002-ref.html
/LayoutTests/imported/w3c/web-platform-tests/mathml/presentation-markup/operators/operator-dictionary-arabic-002.html
/LayoutTests/imported/w3c/web-platform-tests/mathml/presentation-markup/operators/operator-dictionary-combining.html
/LayoutTests/imported/w3c/web-platform-tests/mathml/presentation-markup/operators/operator-dictionary-empty-and-three-chars-expected.html
/LayoutTests/imported/w3c/web-platform-tests/mathml/presentation-markup/operators/operator-dictionary-empty-and-three-chars-ref.html
/LayoutTests/imported/w3c/web-platform-tests/mathml/presentation-markup/operators/operator-dictionary-empty-and-three-chars.html
/LayoutTests/imported/w3c/web-platform-tests/mathml/presentation-markup/operators/operator-dictionary-largeop-001.html
/LayoutTests/imported/w3c/web-platform-tests/mathml/presentation-markup/operators/operator-dictionary-largeop-002.html
/LayoutTests/imported/w3c/web-platform-tests/mathml/presentation-markup/operators/operator-dictionary-largeop-003.html
/LayoutTests/imported/w3c/web-platform-tests/mathml/presentation-markup/operators/operator-dictionary-largeop-004.html
/LayoutTests/imported/w3c/web-platform-tests/mathml/presentation-markup/operators/operator-dictionary-largeop-005.html
/LayoutTests/imported/w3c/web-platform-tests/mathml/presentation-markup/operators/operator-dictionary-largeop-006.html
/LayoutTests/imported/w3c/web-platform-tests/mathml/presentation-markup/operators/operator-dictionary-movablelimits-001.html
/LayoutTests/imported/w3c/web-platform-tests/mathml/presentation-markup/operators/operator-dictionary-movablelimits-002.html
/LayoutTests/imported/w3c/web-platform-tests/mathml/presentation-markup/operators/operator-dictionary-movablelimits-003.html
/LayoutTests/imported/w3c/web-platform-tests/mathml/presentation-markup/operators/operator-dictionary-movablelimits-004.html
/LayoutTests/imported/w3c/web-platform-tests/mathml/presentation-markup/operators/operator-dictionary-movablelimits-005.html
/LayoutTests/imported/w3c/web-platform-tests/mathml/presentation-markup/operators/operator-dictionary-movablelimits-006.html
/LayoutTests/imported/w3c/web-platform-tests/mathml/presentation-markup/operators/operator-dictionary-spacing-001.html
/LayoutTests/imported/w3c/web-platform-tests/mathml/presentation-markup/operators/operator-dictionary-spacing-002.html
/LayoutTests/imported/w3c/web-platform-tests/mathml/presentation-markup/operators/operator-dictionary-spacing-003.html
/LayoutTests/imported/w3c/web-platform-tests/mathml/presentation-markup/operators/operator-dictionary-spacing-004.html
/LayoutTests/imported/w3c/web-platform-tests/mathml/presentation-markup/operators/operator-dictionary-spacing-005.html
/LayoutTests/imported/w3c/web-platform-tests/mathml/presentation-markup/operators/operator-dictionary-spacing-006.html
/LayoutTests/imported/w3c/web-platform-tests/mathml/presentation-markup/operators/operator-dictionary-stretchy-001.html
/LayoutTests/imported/w3c/web-platform-tests/mathml/presentation-markup/operators/operator-dictionary-stretchy-002.html
/LayoutTests/imported/w3c/web-platform-tests/mathml/presentation-markup/operators/operator-dictionary-stretchy-003.html
/LayoutTests/imported/w3c/web-platform-tests/mathml/presentation-markup/operators/operator-dictionary-stretchy-004.html
/LayoutTests/imported/w3c/web-platform-tests/mathml/presentation-markup/operators/operator-dictionary-stretchy-005.html
/LayoutTests/imported/w3c/web-platform-tests/mathml/presentation-markup/operators/operator-dictionary-stretchy-006.html
/LayoutTests/imported/w3c/web-platform-tests/mathml/presentation-markup/operators/operator-dictionary-symmetric-001.html
/LayoutTests/imported/w3c/web-platform-tests/mathml/presentation-markup/operators/operator-dictionary-symmetric-002.html
/LayoutTests/imported/w3c/web-platform-tests/mathml/presentation-markup/operators/operator-dictionary-symmetric-003.html
/LayoutTests/imported/w3c/web-platform-tests/mathml/presentation-markup/operators/operator-dictionary-symmetric-004.html
/LayoutTests/imported/w3c/web-platform-tests/mathml/presentation-markup/operators/operator-dictionary-symmetric-005.html
/LayoutTests/imported/w3c/web-platform-tests/mathml/presentation-markup/operators/operator-dictionary-symmetric-006.html
/LayoutTests/imported/w3c/web-platform-tests/mathml/presentation-markup/operators/painting-stretchy-operator-001-expected.html
/LayoutTests/imported/w3c/web-platform-tests/mathml/presentation-markup/operators/painting-stretchy-operator-001-ref.html
/LayoutTests/imported/w3c/web-platform-tests/mathml/presentation-markup/operators/painting-stretchy-operator-001.html
