The tests in this directory were imported from the W3C repository.
Do NOT modify these tests directly in WebKit.
Instead, create a pull request on the WPT github:
	https://github.com/web-platform-tests/wpt

Then run the Tools/Scripts/import-w3c-tests in WebKit to reimport

Do NOT modify or remove this file.

------------------------------------------------------------------------
Properties requiring vendor prefixes:
None
Property values requiring vendor prefixes:
None
------------------------------------------------------------------------
List of files:
/LayoutTests/imported/w3c/web-platform-tests/html/canvas/element/manual/drawing-text-to-the-canvas/canvas.2d.disconnected-expected.html
/LayoutTests/imported/w3c/web-platform-tests/html/canvas/element/manual/drawing-text-to-the-canvas/canvas.2d.disconnected-ref.html
/LayoutTests/imported/w3c/web-platform-tests/html/canvas/element/manual/drawing-text-to-the-canvas/canvas.2d.disconnected.html
/LayoutTests/imported/w3c/web-platform-tests/html/canvas/element/manual/drawing-text-to-the-canvas/canvas.2d.fontStretch-ref.html
/LayoutTests/imported/w3c/web-platform-tests/html/canvas/element/manual/drawing-text-to-the-canvas/canvas.2d.fontStretch.condensed-expected.html
/LayoutTests/imported/w3c/web-platform-tests/html/canvas/element/manual/drawing-text-to-the-canvas/canvas.2d.fontStretch.condensed.html
/LayoutTests/imported/w3c/web-platform-tests/html/canvas/element/manual/drawing-text-to-the-canvas/canvas.2d.fontStretch.expanded-expected.html
/LayoutTests/imported/w3c/web-platform-tests/html/canvas/element/manual/drawing-text-to-the-canvas/canvas.2d.fontStretch.expanded.html
/LayoutTests/imported/w3c/web-platform-tests/html/canvas/element/manual/drawing-text-to-the-canvas/canvas.2d.fontStretch.extra-condensed-expected.html
/LayoutTests/imported/w3c/web-platform-tests/html/canvas/element/manual/drawing-text-to-the-canvas/canvas.2d.fontStretch.extra-condensed.html
/LayoutTests/imported/w3c/web-platform-tests/html/canvas/element/manual/drawing-text-to-the-canvas/canvas.2d.fontStretch.extra-expanded-expected.html
/LayoutTests/imported/w3c/web-platform-tests/html/canvas/element/manual/drawing-text-to-the-canvas/canvas.2d.fontStretch.extra-expanded.html
/LayoutTests/imported/w3c/web-platform-tests/html/canvas/element/manual/drawing-text-to-the-canvas/canvas.2d.fontStretch.normal-expected.html
/LayoutTests/imported/w3c/web-platform-tests/html/canvas/element/manual/drawing-text-to-the-canvas/canvas.2d.fontStretch.normal.html
/LayoutTests/imported/w3c/web-platform-tests/html/canvas/element/manual/drawing-text-to-the-canvas/canvas.2d.fontStretch.semi-condensed-expected.html
/LayoutTests/imported/w3c/web-platform-tests/html/canvas/element/manual/drawing-text-to-the-canvas/canvas.2d.fontStretch.semi-condensed.html
/LayoutTests/imported/w3c/web-platform-tests/html/canvas/element/manual/drawing-text-to-the-canvas/canvas.2d.fontStretch.semi-expanded-expected.html
/LayoutTests/imported/w3c/web-platform-tests/html/canvas/element/manual/drawing-text-to-the-canvas/canvas.2d.fontStretch.semi-expanded.html
/LayoutTests/imported/w3c/web-platform-tests/html/canvas/element/manual/drawing-text-to-the-canvas/canvas.2d.fontStretch.ultra-condensed-expected.html
/LayoutTests/imported/w3c/web-platform-tests/html/canvas/element/manual/drawing-text-to-the-canvas/canvas.2d.fontStretch.ultra-condensed.html
/LayoutTests/imported/w3c/web-platform-tests/html/canvas/element/manual/drawing-text-to-the-canvas/canvas.2d.fontStretch.ultra-expanded-expected.html
/LayoutTests/imported/w3c/web-platform-tests/html/canvas/element/manual/drawing-text-to-the-canvas/canvas.2d.fontStretch.ultra-expanded.html
